%YAML 1.1
%TAG !u! tag:unity3d.com,2011:
--- !u!1 &1202900466550557758
GameObject:
  m_ObjectHideFlags: 0
  m_CorrespondingSourceObject: {fileID: 0}
  m_PrefabInstance: {fileID: 0}
  m_PrefabAsset: {fileID: 0}
  serializedVersion: 6
  m_Component:
  - component: {fileID: 1957935746633569148}
  - component: {fileID: 170061700648867163}
  - component: {fileID: 8949233296039073384}
  - component: {fileID: 7269031247911662151}
  - component: {fileID: 6705297297329175591}
  m_Layer: 0
  m_Name: Cube
  m_TagString: Untagged
  m_Icon: {fileID: 0}
  m_NavMeshLayer: 0
  m_StaticEditorFlags: 0
  m_IsActive: 1
--- !u!4 &1957935746633569148
Transform:
  m_ObjectHideFlags: 0
  m_CorrespondingSourceObject: {fileID: 0}
  m_PrefabInstance: {fileID: 0}
  m_PrefabAsset: {fileID: 0}
  m_GameObject: {fileID: 1202900466550557758}
  m_LocalRotation: {x: -0, y: -0, z: -0, w: 1}
  m_LocalPosition: {x: 0.35632354, y: -0.18080094, z: 0.08119538}
  m_LocalScale: {x: 0.18015, y: 0.42353266, z: 0.18015}
  m_Children: []
  m_Father: {fileID: 8827058983633773214}
  m_RootOrder: 0
  m_LocalEulerAnglesHint: {x: 0, y: 0, z: 0}
--- !u!33 &170061700648867163
MeshFilter:
  m_ObjectHideFlags: 0
  m_CorrespondingSourceObject: {fileID: 0}
  m_PrefabInstance: {fileID: 0}
  m_PrefabAsset: {fileID: 0}
  m_GameObject: {fileID: 1202900466550557758}
  m_Mesh: {fileID: 0}
--- !u!23 &8949233296039073384
MeshRenderer:
  m_ObjectHideFlags: 0
  m_CorrespondingSourceObject: {fileID: 0}
  m_PrefabInstance: {fileID: 0}
  m_PrefabAsset: {fileID: 0}
  m_GameObject: {fileID: 1202900466550557758}
  m_Enabled: 1
  m_CastShadows: 1
  m_ReceiveShadows: 1
  m_DynamicOccludee: 1
  m_MotionVectors: 1
  m_LightProbeUsage: 1
  m_ReflectionProbeUsage: 1
  m_RenderingLayerMask: 1
  m_RendererPriority: 0
  m_Materials:
  - {fileID: 2100000, guid: a6116e739f2735148b95bfd8c3b125f6, type: 2}
  m_StaticBatchInfo:
    firstSubMesh: 0
    subMeshCount: 0
  m_StaticBatchRoot: {fileID: 0}
  m_ProbeAnchor: {fileID: 0}
  m_LightProbeVolumeOverride: {fileID: 0}
  m_ScaleInLightmap: 1
  m_PreserveUVs: 0
  m_IgnoreNormalsForChartDetection: 0
  m_ImportantGI: 0
  m_StitchLightmapSeams: 1
  m_SelectedEditorRenderState: 2
  m_MinimumChartSize: 4
  m_AutoUVMaxDistance: 0.5
  m_AutoUVMaxAngle: 89
  m_LightmapParameters: {fileID: 0}
  m_SortingLayerID: 0
  m_SortingLayer: 0
  m_SortingOrder: 0
--- !u!114 &7269031247911662151
MonoBehaviour:
  m_ObjectHideFlags: 0
  m_CorrespondingSourceObject: {fileID: 0}
  m_PrefabInstance: {fileID: 0}
  m_PrefabAsset: {fileID: 0}
  m_GameObject: {fileID: 1202900466550557758}
  m_Enabled: 1
  m_EditorHideFlags: 0
  m_Script: {fileID: 11500000, guid: 8233d90336aea43098adf6dbabd606a2, type: 3}
  m_Name: 
  m_EditorClassIdentifier: 
  m_MeshFormatVersion: 1
  m_Faces:
  - m_Indexes: 000000000100000002000000010000000300000002000000
    m_SmoothingGroup: 0
    m_Uv:
      m_UseWorldSpace: 0
      m_FlipU: 0
      m_FlipV: 0
      m_SwapUV: 0
      m_Fill: 1
      m_Scale: {x: 1, y: 1}
      m_Offset: {x: 0, y: 0}
      m_Rotation: 0
      m_Anchor: 9
    m_Material: {fileID: 0}
    m_SubmeshIndex: 0
    m_ManualUV: 0
    elementGroup: -1
    m_TextureGroup: -1
  - m_Indexes: 040000000500000006000000050000000700000006000000
    m_SmoothingGroup: 0
    m_Uv:
      m_UseWorldSpace: 0
      m_FlipU: 0
      m_FlipV: 0
      m_SwapUV: 0
      m_Fill: 1
      m_Scale: {x: 1, y: 1}
      m_Offset: {x: 0, y: 0}
      m_Rotation: 0
      m_Anchor: 9
    m_Material: {fileID: 0}
    m_SubmeshIndex: 0
    m_ManualUV: 0
    elementGroup: -1
    m_TextureGroup: -1
  - m_Indexes: 08000000090000000a000000090000000b0000000a000000
    m_SmoothingGroup: 0
    m_Uv:
      m_UseWorldSpace: 0
      m_FlipU: 0
      m_FlipV: 0
      m_SwapUV: 0
      m_Fill: 1
      m_Scale: {x: 1, y: 1}
      m_Offset: {x: 0, y: 0}
      m_Rotation: 0
      m_Anchor: 9
    m_Material: {fileID: 0}
    m_SubmeshIndex: 0
    m_ManualUV: 0
    elementGroup: -1
    m_TextureGroup: -1
  - m_Indexes: 0c0000000d0000000e0000000d0000000f0000000e000000
    m_SmoothingGroup: 0
    m_Uv:
      m_UseWorldSpace: 0
      m_FlipU: 0
      m_FlipV: 0
      m_SwapUV: 0
      m_Fill: 1
      m_Scale: {x: 1, y: 1}
      m_Offset: {x: 0, y: 0}
      m_Rotation: 0
      m_Anchor: 9
    m_Material: {fileID: 0}
    m_SubmeshIndex: 0
    m_ManualUV: 0
    elementGroup: -1
    m_TextureGroup: -1
  - m_Indexes: 100000001100000012000000110000001300000012000000
    m_SmoothingGroup: 0
    m_Uv:
      m_UseWorldSpace: 0
      m_FlipU: 0
      m_FlipV: 0
      m_SwapUV: 0
      m_Fill: 1
      m_Scale: {x: 1, y: 1}
      m_Offset: {x: 0, y: 0}
      m_Rotation: 0
      m_Anchor: 9
    m_Material: {fileID: 0}
    m_SubmeshIndex: 0
    m_ManualUV: 0
    elementGroup: -1
    m_TextureGroup: -1
  - m_Indexes: 140000001500000016000000150000001700000016000000
    m_SmoothingGroup: 0
    m_Uv:
      m_UseWorldSpace: 0
      m_FlipU: 0
      m_FlipV: 0
      m_SwapUV: 0
      m_Fill: 1
      m_Scale: {x: 1, y: 1}
      m_Offset: {x: 0, y: 0}
      m_Rotation: 0
      m_Anchor: 9
    m_Material: {fileID: 0}
    m_SubmeshIndex: 0
    m_ManualUV: 0
    elementGroup: -1
    m_TextureGroup: -1
  m_SharedVertices:
  - m_Vertices: 000000000d00000016000000
  - m_Vertices: 010000000400000017000000
  - m_Vertices: 020000000f00000010000000
  - m_Vertices: 030000000600000011000000
  - m_Vertices: 050000000800000015000000
  - m_Vertices: 070000000a00000013000000
  - m_Vertices: 090000000c00000014000000
  - m_Vertices: 0b0000000e00000012000000
  m_SharedTextures: []
  m_Positions:
  - {x: -0.21593148, y: -0.50000024, z: 0.282373}
  - {x: 0.20092529, y: -0.50000024, z: 0.282373}
  - {x: -0.49999768, y: 0.49999982, z: 0.49999768}
  - {x: 0.5000023, y: 0.49999982, z: 0.49999768}
  - {x: 0.20092529, y: -0.50000024, z: 0.282373}
  - {x: 0.20092529, y: -0.50000024, z: -0.25899357}
  - {x: 0.5000023, y: 0.49999982, z: 0.49999768}
  - {x: 0.5000023, y: 0.49999982, z: -0.5000023}
  - {x: 0.20092529, y: -0.50000024, z: -0.25899357}
  - {x: -0.21593148, y: -0.50000024, z: -0.25899357}
  - {x: 0.5000023, y: 0.49999982, z: -0.5000023}
  - {x: -0.49999768, y: 0.49999982, z: -0.5000023}
  - {x: -0.21593148, y: -0.50000024, z: -0.25899357}
  - {x: -0.21593148, y: -0.50000024, z: 0.282373}
  - {x: -0.49999768, y: 0.49999982, z: -0.5000023}
  - {x: -0.49999768, y: 0.49999982, z: 0.49999768}
  - {x: -0.49999768, y: 0.49999982, z: 0.49999768}
  - {x: 0.5000023, y: 0.49999982, z: 0.49999768}
  - {x: -0.49999768, y: 0.49999982, z: -0.5000023}
  - {x: 0.5000023, y: 0.49999982, z: -0.5000023}
  - {x: -0.21593148, y: -0.50000024, z: -0.25899357}
  - {x: 0.20092529, y: -0.50000024, z: -0.25899357}
  - {x: -0.21593148, y: -0.50000024, z: 0.282373}
  - {x: 0.20092529, y: -0.50000024, z: 0.282373}
  m_Textures0:
  - {x: 0.21593148, y: -0.42851886}
  - {x: -0.20092529, y: -0.42851886}
  - {x: 0.49999768, y: 0.5948875}
  - {x: -0.5000023, y: 0.5948875}
  - {x: 0.282373, y: -0.42146245}
  - {x: -0.25899357, y: -0.42146245}
  - {x: 0.49999768, y: 0.6223034}
  - {x: -0.5000023, y: 0.6223034}
  - {x: 0.20092529, y: -0.42540017}
  - {x: -0.21593148, y: -0.42540017}
  - {x: 0.5000023, y: 0.6032326}
  - {x: -0.49999768, y: 0.6032326}
  - {x: 0.25899357, y: -0.42196664}
  - {x: -0.282373, y: -0.42196664}
  - {x: 0.5000023, y: 0.6175975}
  - {x: -0.49999768, y: 0.6175975}
  - {x: -0.49999768, y: 0.49999768}
  - {x: 0.5000023, y: 0.49999768}
  - {x: -0.49999768, y: -0.5000023}
  - {x: 0.5000023, y: -0.5000023}
  - {x: 0.21593148, y: -0.25899357}
  - {x: -0.20092529, y: -0.25899357}
  - {x: 0.21593148, y: 0.282373}
  - {x: -0.20092529, y: 0.282373}
  m_Textures2: []
  m_Textures3: []
  m_Tangents:
  - {x: -1, y: 0, z: 0, w: -1}
  - {x: -1, y: 0, z: 0, w: -1}
  - {x: -1, y: 0, z: 0, w: -1}
  - {x: -1, y: 0, z: 0, w: -1}
  - {x: 0, y: 0, z: 1, w: -1}
  - {x: 0, y: 0, z: 1, w: -1}
  - {x: 0, y: 0, z: 1, w: -1}
  - {x: 0, y: 0, z: 1, w: -1}
  - {x: 1, y: 0, z: 0, w: -1}
  - {x: 1, y: 0, z: 0, w: -1}
  - {x: 1, y: 0, z: 0, w: -1}
  - {x: 1, y: 0, z: 0, w: -1}
  - {x: 0, y: 0, z: -1, w: -1}
  - {x: 0, y: 0, z: -1, w: -1}
  - {x: 0, y: 0, z: -1, w: -1}
  - {x: 0, y: 0, z: -1, w: -1}
  - {x: 1, y: 0, z: 0, w: -1}
  - {x: 1, y: 0, z: 0, w: -1}
  - {x: 1, y: 0, z: 0, w: -1}
  - {x: 1, y: 0, z: 0, w: -1}
  - {x: -1, y: 0, z: 0, w: -1}
  - {x: -1, y: 0, z: 0, w: -1}
  - {x: -1, y: 0, z: 0, w: -1}
  - {x: -1, y: 0, z: 0, w: -1}
  m_Colors: []
  m_UnwrapParameters:
    m_HardAngle: 88
    m_PackMargin: 20
    m_AngleError: 8
    m_AreaError: 15
  m_PreserveMeshAssetOnDestroy: 0
  assetGuid: 
  m_IsSelectable: 1
  m_SelectedFaces: 00000000
  m_SelectedEdges: []
  m_SelectedVertices: 
--- !u!64 &6705297297329175591
MeshCollider:
  m_ObjectHideFlags: 0
  m_CorrespondingSourceObject: {fileID: 0}
  m_PrefabInstance: {fileID: 0}
  m_PrefabAsset: {fileID: 0}
  m_GameObject: {fileID: 1202900466550557758}
  m_Material: {fileID: 0}
  m_IsTrigger: 0
  m_Enabled: 0
  serializedVersion: 3
  m_Convex: 0
  m_CookingOptions: 14
  m_Mesh: {fileID: 0}
--- !u!1 &4888585523249299635
GameObject:
  m_ObjectHideFlags: 0
  m_CorrespondingSourceObject: {fileID: 0}
  m_PrefabInstance: {fileID: 0}
  m_PrefabAsset: {fileID: 0}
  serializedVersion: 6
  m_Component:
  - component: {fileID: 4857710110112666352}
  - component: {fileID: 6982234689269188390}
  - component: {fileID: 5401710480846484169}
  - component: {fileID: 6401281133725348264}
  - component: {fileID: 7918808713860000635}
  m_Layer: 0
  m_Name: Cylinder
  m_TagString: Untagged
  m_Icon: {fileID: 0}
  m_NavMeshLayer: 0
  m_StaticEditorFlags: 0
  m_IsActive: 1
--- !u!4 &4857710110112666352
Transform:
  m_ObjectHideFlags: 0
  m_CorrespondingSourceObject: {fileID: 0}
  m_PrefabInstance: {fileID: 0}
  m_PrefabAsset: {fileID: 0}
  m_GameObject: {fileID: 4888585523249299635}
  m_LocalRotation: {x: -0, y: -0, z: -0.7071067, w: 0.70710695}
  m_LocalPosition: {x: 0.35404077, y: -0.52645284, z: 0.080415264}
  m_LocalScale: {x: 0.18015006, y: 0.07603958, z: 0.18015}
  m_Children: []
  m_Father: {fileID: 8827058983633773214}
  m_RootOrder: 1
  m_LocalEulerAnglesHint: {x: 0, y: 0, z: -90.00001}
--- !u!33 &6982234689269188390
MeshFilter:
  m_ObjectHideFlags: 0
  m_CorrespondingSourceObject: {fileID: 0}
  m_PrefabInstance: {fileID: 0}
  m_PrefabAsset: {fileID: 0}
  m_GameObject: {fileID: 4888585523249299635}
  m_Mesh: {fileID: 0}
--- !u!23 &5401710480846484169
MeshRenderer:
  m_ObjectHideFlags: 0
  m_CorrespondingSourceObject: {fileID: 0}
  m_PrefabInstance: {fileID: 0}
  m_PrefabAsset: {fileID: 0}
  m_GameObject: {fileID: 4888585523249299635}
  m_Enabled: 1
  m_CastShadows: 1
  m_ReceiveShadows: 1
  m_DynamicOccludee: 1
  m_MotionVectors: 1
  m_LightProbeUsage: 1
  m_ReflectionProbeUsage: 1
  m_RenderingLayerMask: 1
  m_RendererPriority: 0
  m_Materials:
  - {fileID: 2100000, guid: a6116e739f2735148b95bfd8c3b125f6, type: 2}
  m_StaticBatchInfo:
    firstSubMesh: 0
    subMeshCount: 0
  m_StaticBatchRoot: {fileID: 0}
  m_ProbeAnchor: {fileID: 0}
  m_LightProbeVolumeOverride: {fileID: 0}
  m_ScaleInLightmap: 1
  m_PreserveUVs: 0
  m_IgnoreNormalsForChartDetection: 0
  m_ImportantGI: 0
  m_StitchLightmapSeams: 1
  m_SelectedEditorRenderState: 2
  m_MinimumChartSize: 4
  m_AutoUVMaxDistance: 0.5
  m_AutoUVMaxAngle: 89
  m_LightmapParameters: {fileID: 0}
  m_SortingLayerID: 0
  m_SortingLayer: 0
  m_SortingOrder: 0
--- !u!114 &6401281133725348264
MonoBehaviour:
  m_ObjectHideFlags: 0
  m_CorrespondingSourceObject: {fileID: 0}
  m_PrefabInstance: {fileID: 0}
  m_PrefabAsset: {fileID: 0}
  m_GameObject: {fileID: 4888585523249299635}
  m_Enabled: 1
  m_EditorHideFlags: 0
  m_Script: {fileID: 11500000, guid: 8233d90336aea43098adf6dbabd606a2, type: 3}
  m_Name: 
  m_EditorClassIdentifier: 
  m_MeshFormatVersion: 1
  m_Faces:
  - m_Indexes: 000000000100000002000000010000000300000002000000
    m_SmoothingGroup: 1
    m_Uv:
      m_UseWorldSpace: 0
      m_FlipU: 0
      m_FlipV: 0
      m_SwapUV: 0
      m_Fill: 1
      m_Scale: {x: 1, y: 1}
      m_Offset: {x: 0, y: 0}
      m_Rotation: 0
      m_Anchor: 9
    m_Material: {fileID: 0}
    m_SubmeshIndex: 0
    m_ManualUV: 0
    elementGroup: -1
    m_TextureGroup: -1
  - m_Indexes: 040000000500000006000000050000000700000006000000
    m_SmoothingGroup: 1
    m_Uv:
      m_UseWorldSpace: 0
      m_FlipU: 0
      m_FlipV: 0
      m_SwapUV: 0
      m_Fill: 1
      m_Scale: {x: 1, y: 1}
      m_Offset: {x: 0, y: 0}
      m_Rotation: 0
      m_Anchor: 9
    m_Material: {fileID: 0}
    m_SubmeshIndex: 0
    m_ManualUV: 0
    elementGroup: -1
    m_TextureGroup: -1
  - m_Indexes: 08000000090000000a000000090000000b0000000a000000
    m_SmoothingGroup: 1
    m_Uv:
      m_UseWorldSpace: 0
      m_FlipU: 0
      m_FlipV: 0
      m_SwapUV: 0
      m_Fill: 1
      m_Scale: {x: 1, y: 1}
      m_Offset: {x: 0, y: 0}
      m_Rotation: 0
      m_Anchor: 9
    m_Material: {fileID: 0}
    m_SubmeshIndex: 0
    m_ManualUV: 0
    elementGroup: -1
    m_TextureGroup: -1
  - m_Indexes: 0c0000000d0000000e0000000d0000000f0000000e000000
    m_SmoothingGroup: 1
    m_Uv:
      m_UseWorldSpace: 0
      m_FlipU: 0
      m_FlipV: 0
      m_SwapUV: 0
      m_Fill: 1
      m_Scale: {x: 1, y: 1}
      m_Offset: {x: 0, y: 0}
      m_Rotation: 0
      m_Anchor: 9
    m_Material: {fileID: 0}
    m_SubmeshIndex: 0
    m_ManualUV: 0
    elementGroup: -1
    m_TextureGroup: -1
  - m_Indexes: 100000001100000012000000110000001300000012000000
    m_SmoothingGroup: 1
    m_Uv:
      m_UseWorldSpace: 0
      m_FlipU: 0
      m_FlipV: 0
      m_SwapUV: 0
      m_Fill: 1
      m_Scale: {x: 1, y: 1}
      m_Offset: {x: 0, y: 0}
      m_Rotation: 0
      m_Anchor: 9
    m_Material: {fileID: 0}
    m_SubmeshIndex: 0
    m_ManualUV: 0
    elementGroup: -1
    m_TextureGroup: -1
  - m_Indexes: 140000001500000016000000150000001700000016000000
    m_SmoothingGroup: 1
    m_Uv:
      m_UseWorldSpace: 0
      m_FlipU: 0
      m_FlipV: 0
      m_SwapUV: 0
      m_Fill: 1
      m_Scale: {x: 1, y: 1}
      m_Offset: {x: 0, y: 0}
      m_Rotation: 0
      m_Anchor: 9
    m_Material: {fileID: 0}
    m_SubmeshIndex: 0
    m_ManualUV: 0
    elementGroup: -1
    m_TextureGroup: -1
  - m_Indexes: 18000000190000001a000000190000001b0000001a000000
    m_SmoothingGroup: 1
    m_Uv:
      m_UseWorldSpace: 0
      m_FlipU: 0
      m_FlipV: 0
      m_SwapUV: 0
      m_Fill: 1
      m_Scale: {x: 1, y: 1}
      m_Offset: {x: 0, y: 0}
      m_Rotation: 0
      m_Anchor: 9
    m_Material: {fileID: 0}
    m_SubmeshIndex: 0
    m_ManualUV: 0
    elementGroup: -1
    m_TextureGroup: -1
  - m_Indexes: 1c0000001d0000001e0000001d0000001f0000001e000000
    m_SmoothingGroup: 1
    m_Uv:
      m_UseWorldSpace: 0
      m_FlipU: 0
      m_FlipV: 0
      m_SwapUV: 0
      m_Fill: 1
      m_Scale: {x: 1, y: 1}
      m_Offset: {x: 0, y: 0}
      m_Rotation: 0
      m_Anchor: 9
    m_Material: {fileID: 0}
    m_SubmeshIndex: 0
    m_ManualUV: 0
    elementGroup: -1
    m_TextureGroup: -1
  - m_Indexes: 200000002100000022000000210000002300000022000000
    m_SmoothingGroup: 1
    m_Uv:
      m_UseWorldSpace: 0
      m_FlipU: 0
      m_FlipV: 0
      m_SwapUV: 0
      m_Fill: 1
      m_Scale: {x: 1, y: 1}
      m_Offset: {x: 0, y: 0}
      m_Rotation: 0
      m_Anchor: 9
    m_Material: {fileID: 0}
    m_SubmeshIndex: 0
    m_ManualUV: 0
    elementGroup: -1
    m_TextureGroup: -1
  - m_Indexes: 240000002500000026000000250000002700000026000000
    m_SmoothingGroup: 1
    m_Uv:
      m_UseWorldSpace: 0
      m_FlipU: 0
      m_FlipV: 0
      m_SwapUV: 0
      m_Fill: 1
      m_Scale: {x: 1, y: 1}
      m_Offset: {x: 0, y: 0}
      m_Rotation: 0
      m_Anchor: 9
    m_Material: {fileID: 0}
    m_SubmeshIndex: 0
    m_ManualUV: 0
    elementGroup: -1
    m_TextureGroup: -1
  - m_Indexes: 28000000290000002a000000290000002b0000002a000000
    m_SmoothingGroup: 1
    m_Uv:
      m_UseWorldSpace: 0
      m_FlipU: 0
      m_FlipV: 0
      m_SwapUV: 0
      m_Fill: 1
      m_Scale: {x: 1, y: 1}
      m_Offset: {x: 0, y: 0}
      m_Rotation: 0
      m_Anchor: 9
    m_Material: {fileID: 0}
    m_SubmeshIndex: 0
    m_ManualUV: 0
    elementGroup: -1
    m_TextureGroup: -1
  - m_Indexes: 2c0000002d0000002e0000002d0000002f0000002e000000
    m_SmoothingGroup: 1
    m_Uv:
      m_UseWorldSpace: 0
      m_FlipU: 0
      m_FlipV: 0
      m_SwapUV: 0
      m_Fill: 1
      m_Scale: {x: 1, y: 1}
      m_Offset: {x: 0, y: 0}
      m_Rotation: 0
      m_Anchor: 9
    m_Material: {fileID: 0}
    m_SubmeshIndex: 0
    m_ManualUV: 0
    elementGroup: -1
    m_TextureGroup: -1
  - m_Indexes: 320000003100000030000000
    m_SmoothingGroup: 0
    m_Uv:
      m_UseWorldSpace: 0
      m_FlipU: 0
      m_FlipV: 0
      m_SwapUV: 0
      m_Fill: 1
      m_Scale: {x: 1, y: 1}
      m_Offset: {x: 0, y: 0}
      m_Rotation: 0
      m_Anchor: 9
    m_Material: {fileID: 2100000, guid: c22777d6e868e4f2fb421913386b154e, type: 2}
    m_SubmeshIndex: 0
    m_ManualUV: 0
    elementGroup: 0
    m_TextureGroup: -1
  - m_Indexes: 380000003700000036000000
    m_SmoothingGroup: 0
    m_Uv:
      m_UseWorldSpace: 0
      m_FlipU: 0
      m_FlipV: 0
      m_SwapUV: 0
      m_Fill: 1
      m_Scale: {x: 1, y: 1}
      m_Offset: {x: 0, y: 0}
      m_Rotation: 0
      m_Anchor: 9
    m_Material: {fileID: 2100000, guid: c22777d6e868e4f2fb421913386b154e, type: 2}
    m_SubmeshIndex: 0
    m_ManualUV: 0
    elementGroup: 0
    m_TextureGroup: -1
  - m_Indexes: 3e0000003d0000003c000000
    m_SmoothingGroup: 0
    m_Uv:
      m_UseWorldSpace: 0
      m_FlipU: 0
      m_FlipV: 0
      m_SwapUV: 0
      m_Fill: 1
      m_Scale: {x: 1, y: 1}
      m_Offset: {x: 0, y: 0}
      m_Rotation: 0
      m_Anchor: 9
    m_Material: {fileID: 2100000, guid: c22777d6e868e4f2fb421913386b154e, type: 2}
    m_SubmeshIndex: 0
    m_ManualUV: 0
    elementGroup: 0
    m_TextureGroup: -1
  - m_Indexes: 440000004300000042000000
    m_SmoothingGroup: 0
    m_Uv:
      m_UseWorldSpace: 0
      m_FlipU: 0
      m_FlipV: 0
      m_SwapUV: 0
      m_Fill: 1
      m_Scale: {x: 1, y: 1}
      m_Offset: {x: 0, y: 0}
      m_Rotation: 0
      m_Anchor: 9
    m_Material: {fileID: 2100000, guid: c22777d6e868e4f2fb421913386b154e, type: 2}
    m_SubmeshIndex: 0
    m_ManualUV: 0
    elementGroup: 0
    m_TextureGroup: -1
  - m_Indexes: 4a0000004900000048000000
    m_SmoothingGroup: 0
    m_Uv:
      m_UseWorldSpace: 0
      m_FlipU: 0
      m_FlipV: 0
      m_SwapUV: 0
      m_Fill: 1
      m_Scale: {x: 1, y: 1}
      m_Offset: {x: 0, y: 0}
      m_Rotation: 0
      m_Anchor: 9
    m_Material: {fileID: 2100000, guid: c22777d6e868e4f2fb421913386b154e, type: 2}
    m_SubmeshIndex: 0
    m_ManualUV: 0
    elementGroup: 0
    m_TextureGroup: -1
  - m_Indexes: 500000004f0000004e000000
    m_SmoothingGroup: 0
    m_Uv:
      m_UseWorldSpace: 0
      m_FlipU: 0
      m_FlipV: 0
      m_SwapUV: 0
      m_Fill: 1
      m_Scale: {x: 1, y: 1}
      m_Offset: {x: 0, y: 0}
      m_Rotation: 0
      m_Anchor: 9
    m_Material: {fileID: 2100000, guid: c22777d6e868e4f2fb421913386b154e, type: 2}
    m_SubmeshIndex: 0
    m_ManualUV: 0
    elementGroup: 0
    m_TextureGroup: -1
  - m_Indexes: 560000005500000054000000
    m_SmoothingGroup: 0
    m_Uv:
      m_UseWorldSpace: 0
      m_FlipU: 0
      m_FlipV: 0
      m_SwapUV: 0
      m_Fill: 1
      m_Scale: {x: 1, y: 1}
      m_Offset: {x: 0, y: 0}
      m_Rotation: 0
      m_Anchor: 9
    m_Material: {fileID: 2100000, guid: c22777d6e868e4f2fb421913386b154e, type: 2}
    m_SubmeshIndex: 0
    m_ManualUV: 0
    elementGroup: 0
    m_TextureGroup: -1
  - m_Indexes: 5c0000005b0000005a000000
    m_SmoothingGroup: 0
    m_Uv:
      m_UseWorldSpace: 0
      m_FlipU: 0
      m_FlipV: 0
      m_SwapUV: 0
      m_Fill: 1
      m_Scale: {x: 1, y: 1}
      m_Offset: {x: 0, y: 0}
      m_Rotation: 0
      m_Anchor: 9
    m_Material: {fileID: 2100000, guid: c22777d6e868e4f2fb421913386b154e, type: 2}
    m_SubmeshIndex: 0
    m_ManualUV: 0
    elementGroup: 0
    m_TextureGroup: -1
  - m_Indexes: 620000006100000060000000
    m_SmoothingGroup: 0
    m_Uv:
      m_UseWorldSpace: 0
      m_FlipU: 0
      m_FlipV: 0
      m_SwapUV: 0
      m_Fill: 1
      m_Scale: {x: 1, y: 1}
      m_Offset: {x: 0, y: 0}
      m_Rotation: 0
      m_Anchor: 9
    m_Material: {fileID: 2100000, guid: c22777d6e868e4f2fb421913386b154e, type: 2}
    m_SubmeshIndex: 0
    m_ManualUV: 0
    elementGroup: 0
    m_TextureGroup: -1
  - m_Indexes: 680000006700000066000000
    m_SmoothingGroup: 0
    m_Uv:
      m_UseWorldSpace: 0
      m_FlipU: 0
      m_FlipV: 0
      m_SwapUV: 0
      m_Fill: 1
      m_Scale: {x: 1, y: 1}
      m_Offset: {x: 0, y: 0}
      m_Rotation: 0
      m_Anchor: 9
    m_Material: {fileID: 2100000, guid: c22777d6e868e4f2fb421913386b154e, type: 2}
    m_SubmeshIndex: 0
    m_ManualUV: 0
    elementGroup: 0
    m_TextureGroup: -1
  - m_Indexes: 6e0000006d0000006c000000
    m_SmoothingGroup: 0
    m_Uv:
      m_UseWorldSpace: 0
      m_FlipU: 0
      m_FlipV: 0
      m_SwapUV: 0
      m_Fill: 1
      m_Scale: {x: 1, y: 1}
      m_Offset: {x: 0, y: 0}
      m_Rotation: 0
      m_Anchor: 9
    m_Material: {fileID: 2100000, guid: c22777d6e868e4f2fb421913386b154e, type: 2}
    m_SubmeshIndex: 0
    m_ManualUV: 0
    elementGroup: 0
    m_TextureGroup: -1
  - m_Indexes: 740000007300000072000000
    m_SmoothingGroup: 0
    m_Uv:
      m_UseWorldSpace: 0
      m_FlipU: 0
      m_FlipV: 0
      m_SwapUV: 0
      m_Fill: 1
      m_Scale: {x: 1, y: 1}
      m_Offset: {x: 0, y: 0}
      m_Rotation: 0
      m_Anchor: 9
    m_Material: {fileID: 2100000, guid: c22777d6e868e4f2fb421913386b154e, type: 2}
    m_SubmeshIndex: 0
    m_ManualUV: 0
    elementGroup: 0
    m_TextureGroup: -1
  - m_Indexes: 330000003400000035000000
    m_SmoothingGroup: 0
    m_Uv:
      m_UseWorldSpace: 0
      m_FlipU: 0
      m_FlipV: 0
      m_SwapUV: 0
      m_Fill: 1
      m_Scale: {x: 1, y: 1}
      m_Offset: {x: 0, y: 0}
      m_Rotation: 0
      m_Anchor: 9
    m_Material: {fileID: 2100000, guid: c22777d6e868e4f2fb421913386b154e, type: 2}
    m_SubmeshIndex: 0
    m_ManualUV: 0
    elementGroup: 0
    m_TextureGroup: -1
  - m_Indexes: 390000003a0000003b000000
    m_SmoothingGroup: 0
    m_Uv:
      m_UseWorldSpace: 0
      m_FlipU: 0
      m_FlipV: 0
      m_SwapUV: 0
      m_Fill: 1
      m_Scale: {x: 1, y: 1}
      m_Offset: {x: 0, y: 0}
      m_Rotation: 0
      m_Anchor: 9
    m_Material: {fileID: 2100000, guid: c22777d6e868e4f2fb421913386b154e, type: 2}
    m_SubmeshIndex: 0
    m_ManualUV: 0
    elementGroup: 0
    m_TextureGroup: -1
  - m_Indexes: 3f0000004000000041000000
    m_SmoothingGroup: 0
    m_Uv:
      m_UseWorldSpace: 0
      m_FlipU: 0
      m_FlipV: 0
      m_SwapUV: 0
      m_Fill: 1
      m_Scale: {x: 1, y: 1}
      m_Offset: {x: 0, y: 0}
      m_Rotation: 0
      m_Anchor: 9
    m_Material: {fileID: 2100000, guid: c22777d6e868e4f2fb421913386b154e, type: 2}
    m_SubmeshIndex: 0
    m_ManualUV: 0
    elementGroup: 0
    m_TextureGroup: -1
  - m_Indexes: 450000004600000047000000
    m_SmoothingGroup: 0
    m_Uv:
      m_UseWorldSpace: 0
      m_FlipU: 0
      m_FlipV: 0
      m_SwapUV: 0
      m_Fill: 1
      m_Scale: {x: 1, y: 1}
      m_Offset: {x: 0, y: 0}
      m_Rotation: 0
      m_Anchor: 9
    m_Material: {fileID: 2100000, guid: c22777d6e868e4f2fb421913386b154e, type: 2}
    m_SubmeshIndex: 0
    m_ManualUV: 0
    elementGroup: 0
    m_TextureGroup: -1
  - m_Indexes: 4b0000004c0000004d000000
    m_SmoothingGroup: 0
    m_Uv:
      m_UseWorldSpace: 0
      m_FlipU: 0
      m_FlipV: 0
      m_SwapUV: 0
      m_Fill: 1
      m_Scale: {x: 1, y: 1}
      m_Offset: {x: 0, y: 0}
      m_Rotation: 0
      m_Anchor: 9
    m_Material: {fileID: 2100000, guid: c22777d6e868e4f2fb421913386b154e, type: 2}
    m_SubmeshIndex: 0
    m_ManualUV: 0
    elementGroup: 0
    m_TextureGroup: -1
  - m_Indexes: 510000005200000053000000
    m_SmoothingGroup: 0
    m_Uv:
      m_UseWorldSpace: 0
      m_FlipU: 0
      m_FlipV: 0
      m_SwapUV: 0
      m_Fill: 1
      m_Scale: {x: 1, y: 1}
      m_Offset: {x: 0, y: 0}
      m_Rotation: 0
      m_Anchor: 9
    m_Material: {fileID: 2100000, guid: c22777d6e868e4f2fb421913386b154e, type: 2}
    m_SubmeshIndex: 0
    m_ManualUV: 0
    elementGroup: 0
    m_TextureGroup: -1
  - m_Indexes: 570000005800000059000000
    m_SmoothingGroup: 0
    m_Uv:
      m_UseWorldSpace: 0
      m_FlipU: 0
      m_FlipV: 0
      m_SwapUV: 0
      m_Fill: 1
      m_Scale: {x: 1, y: 1}
      m_Offset: {x: 0, y: 0}
      m_Rotation: 0
      m_Anchor: 9
    m_Material: {fileID: 2100000, guid: c22777d6e868e4f2fb421913386b154e, type: 2}
    m_SubmeshIndex: 0
    m_ManualUV: 0
    elementGroup: 0
    m_TextureGroup: -1
  - m_Indexes: 5d0000005e0000005f000000
    m_SmoothingGroup: 0
    m_Uv:
      m_UseWorldSpace: 0
      m_FlipU: 0
      m_FlipV: 0
      m_SwapUV: 0
      m_Fill: 1
      m_Scale: {x: 1, y: 1}
      m_Offset: {x: 0, y: 0}
      m_Rotation: 0
      m_Anchor: 9
    m_Material: {fileID: 2100000, guid: c22777d6e868e4f2fb421913386b154e, type: 2}
    m_SubmeshIndex: 0
    m_ManualUV: 0
    elementGroup: 0
    m_TextureGroup: -1
  - m_Indexes: 630000006400000065000000
    m_SmoothingGroup: 0
    m_Uv:
      m_UseWorldSpace: 0
      m_FlipU: 0
      m_FlipV: 0
      m_SwapUV: 0
      m_Fill: 1
      m_Scale: {x: 1, y: 1}
      m_Offset: {x: 0, y: 0}
      m_Rotation: 0
      m_Anchor: 9
    m_Material: {fileID: 2100000, guid: c22777d6e868e4f2fb421913386b154e, type: 2}
    m_SubmeshIndex: 0
    m_ManualUV: 0
    elementGroup: 0
    m_TextureGroup: -1
  - m_Indexes: 690000006a0000006b000000
    m_SmoothingGroup: 0
    m_Uv:
      m_UseWorldSpace: 0
      m_FlipU: 0
      m_FlipV: 0
      m_SwapUV: 0
      m_Fill: 1
      m_Scale: {x: 1, y: 1}
      m_Offset: {x: 0, y: 0}
      m_Rotation: 0
      m_Anchor: 9
    m_Material: {fileID: 2100000, guid: c22777d6e868e4f2fb421913386b154e, type: 2}
    m_SubmeshIndex: 0
    m_ManualUV: 0
    elementGroup: 0
    m_TextureGroup: -1
  - m_Indexes: 6f0000007000000071000000
    m_SmoothingGroup: 0
    m_Uv:
      m_UseWorldSpace: 0
      m_FlipU: 0
      m_FlipV: 0
      m_SwapUV: 0
      m_Fill: 1
      m_Scale: {x: 1, y: 1}
      m_Offset: {x: 0, y: 0}
      m_Rotation: 0
      m_Anchor: 9
    m_Material: {fileID: 2100000, guid: c22777d6e868e4f2fb421913386b154e, type: 2}
    m_SubmeshIndex: 0
    m_ManualUV: 0
    elementGroup: 0
    m_TextureGroup: -1
  - m_Indexes: 750000007600000077000000
    m_SmoothingGroup: 0
    m_Uv:
      m_UseWorldSpace: 0
      m_FlipU: 0
      m_FlipV: 0
      m_SwapUV: 0
      m_Fill: 1
      m_Scale: {x: 1, y: 1}
      m_Offset: {x: 0, y: 0}
      m_Rotation: 0
      m_Anchor: 9
    m_Material: {fileID: 2100000, guid: c22777d6e868e4f2fb421913386b154e, type: 2}
    m_SubmeshIndex: 0
    m_ManualUV: 0
    elementGroup: 0
    m_TextureGroup: -1
  m_SharedVertices:
  - m_Vertices: 000000002e0000003000000074000000
  - m_Vertices: 010000002f0000003300000077000000
  - m_Vertices: 02000000040000003200000036000000
  - m_Vertices: 03000000050000003500000039000000
  - m_Vertices: 0600000008000000380000003c000000
  - m_Vertices: 07000000090000003b0000003f000000
  - m_Vertices: 0a0000000c0000003e00000042000000
  - m_Vertices: 0b0000000d0000004100000045000000
  - m_Vertices: 0e000000100000004400000048000000
  - m_Vertices: 0f00000011000000470000004b000000
  - m_Vertices: 12000000140000004a0000004e000000
  - m_Vertices: 13000000150000004d00000051000000
  - m_Vertices: 16000000180000005000000054000000
  - m_Vertices: 17000000190000005300000057000000
  - m_Vertices: 1a0000001c000000560000005a000000
  - m_Vertices: 1b0000001d000000590000005d000000
  - m_Vertices: 1e000000200000005c00000060000000
  - m_Vertices: 1f000000210000005f00000063000000
  - m_Vertices: 22000000240000006200000066000000
  - m_Vertices: 23000000250000006500000069000000
  - m_Vertices: 2600000028000000680000006c000000
  - m_Vertices: 27000000290000006b0000006f000000
  - m_Vertices: 2a0000002c0000006e00000072000000
  - m_Vertices: 2b0000002d0000007100000075000000
  - m_Vertices: 31000000370000003d00000043000000490000004f000000550000005b00000061000000670000006d00000073000000
  - m_Vertices: 340000003a00000040000000460000004c00000052000000580000005e000000640000006a0000007000000076000000
  m_SharedTextures: []
  m_Positions:
  - {x: 0.4999993, y: -0.49999854, z: 0}
  - {x: 0.4999993, y: 0.50000143, z: 0}
  - {x: 0.433012, y: -0.49999854, z: 0.25}
  - {x: 0.433012, y: 0.50000143, z: 0.25}
  - {x: 0.433012, y: -0.49999854, z: 0.25}
  - {x: 0.433012, y: 0.50000143, z: 0.25}
  - {x: 0.24999931, y: -0.49999854, z: 0.43301272}
  - {x: 0.24999931, y: 0.50000143, z: 0.43301272}
  - {x: 0.24999931, y: -0.49999854, z: 0.43301272}
  - {x: 0.24999931, y: 0.50000143, z: 0.43301272}
  - {x: -0.0000006854534, y: -0.49999854, z: 0.5}
  - {x: -0.0000006854534, y: 0.50000143, z: 0.5}
  - {x: -0.0000006854534, y: -0.49999854, z: 0.5}
  - {x: -0.0000006854534, y: 0.50000143, z: 0.5}
  - {x: -0.2500007, y: -0.49999854, z: 0.4330127}
  - {x: -0.2500007, y: 0.50000143, z: 0.4330127}
  - {x: -0.2500007, y: -0.49999854, z: 0.4330127}
  - {x: -0.2500007, y: 0.50000143, z: 0.4330127}
  - {x: -0.4330134, y: -0.49999854, z: 0.25000003}
  - {x: -0.4330134, y: 0.50000143, z: 0.25000003}
  - {x: -0.4330134, y: -0.49999854, z: 0.25000003}
  - {x: -0.4330134, y: 0.50000143, z: 0.25000003}
  - {x: -0.5000007, y: -0.49999854, z: -0.00000004371139}
  - {x: -0.5000007, y: 0.50000143, z: -0.00000004371139}
  - {x: -0.5000007, y: -0.49999854, z: -0.00000004371139}
  - {x: -0.5000007, y: 0.50000143, z: -0.00000004371139}
  - {x: -0.4330134, y: -0.49999854, z: -0.24999999}
  - {x: -0.4330134, y: 0.50000143, z: -0.24999999}
  - {x: -0.4330134, y: -0.49999854, z: -0.24999999}
  - {x: -0.4330134, y: 0.50000143, z: -0.24999999}
  - {x: -0.25000063, y: -0.49999854, z: -0.43301272}
  - {x: -0.25000063, y: 0.50000143, z: -0.43301272}
  - {x: -0.25000063, y: -0.49999854, z: -0.43301272}
  - {x: -0.25000063, y: 0.50000143, z: -0.43301272}
  - {x: -0.0000006854534, y: -0.49999854, z: -0.5}
  - {x: -0.0000006854534, y: 0.50000143, z: -0.5}
  - {x: -0.0000006854534, y: -0.49999854, z: -0.5}
  - {x: -0.0000006854534, y: 0.50000143, z: -0.5}
  - {x: 0.24999925, y: -0.49999854, z: -0.43301272}
  - {x: 0.24999925, y: 0.50000143, z: -0.43301272}
  - {x: 0.24999925, y: -0.49999854, z: -0.43301272}
  - {x: 0.24999925, y: 0.50000143, z: -0.43301272}
  - {x: 0.43301198, y: -0.49999854, z: -0.2500001}
  - {x: 0.43301198, y: 0.50000143, z: -0.2500001}
  - {x: 0.43301198, y: -0.49999854, z: -0.2500001}
  - {x: 0.43301198, y: 0.50000143, z: -0.2500001}
  - {x: 0.4999993, y: -0.49999854, z: 0}
  - {x: 0.4999993, y: 0.50000143, z: 0}
  - {x: 0.4999993, y: -0.49999854, z: 0}
  - {x: -0.0000006854534, y: -0.49999854, z: 0}
  - {x: 0.433012, y: -0.49999854, z: 0.25}
  - {x: 0.4999993, y: 0.50000143, z: 0}
  - {x: -0.0000006854534, y: 0.50000143, z: 0}
  - {x: 0.433012, y: 0.50000143, z: 0.25}
  - {x: 0.433012, y: -0.49999854, z: 0.25}
  - {x: -0.0000006854534, y: -0.49999854, z: 0}
  - {x: 0.24999931, y: -0.49999854, z: 0.43301272}
  - {x: 0.433012, y: 0.50000143, z: 0.25}
  - {x: -0.0000006854534, y: 0.50000143, z: 0}
  - {x: 0.24999931, y: 0.50000143, z: 0.43301272}
  - {x: 0.24999931, y: -0.49999854, z: 0.43301272}
  - {x: -0.0000006854534, y: -0.49999854, z: 0}
  - {x: -0.0000006854534, y: -0.49999854, z: 0.5}
  - {x: 0.24999931, y: 0.50000143, z: 0.43301272}
  - {x: -0.0000006854534, y: 0.50000143, z: 0}
  - {x: -0.0000006854534, y: 0.50000143, z: 0.5}
  - {x: -0.0000006854534, y: -0.49999854, z: 0.5}
  - {x: -0.0000006854534, y: -0.49999854, z: 0}
  - {x: -0.2500007, y: -0.49999854, z: 0.4330127}
  - {x: -0.0000006854534, y: 0.50000143, z: 0.5}
  - {x: -0.0000006854534, y: 0.50000143, z: 0}
  - {x: -0.2500007, y: 0.50000143, z: 0.4330127}
  - {x: -0.2500007, y: -0.49999854, z: 0.4330127}
  - {x: -0.0000006854534, y: -0.49999854, z: 0}
  - {x: -0.4330134, y: -0.49999854, z: 0.25000003}
  - {x: -0.2500007, y: 0.50000143, z: 0.4330127}
  - {x: -0.0000006854534, y: 0.50000143, z: 0}
  - {x: -0.4330134, y: 0.50000143, z: 0.25000003}
  - {x: -0.4330134, y: -0.49999854, z: 0.25000003}
  - {x: -0.0000006854534, y: -0.49999854, z: 0}
  - {x: -0.5000007, y: -0.49999854, z: -0.00000004371139}
  - {x: -0.4330134, y: 0.50000143, z: 0.25000003}
  - {x: -0.0000006854534, y: 0.50000143, z: 0}
  - {x: -0.5000007, y: 0.50000143, z: -0.00000004371139}
  - {x: -0.5000007, y: -0.49999854, z: -0.00000004371139}
  - {x: -0.0000006854534, y: -0.49999854, z: 0}
  - {x: -0.4330134, y: -0.49999854, z: -0.24999999}
  - {x: -0.5000007, y: 0.50000143, z: -0.00000004371139}
  - {x: -0.0000006854534, y: 0.50000143, z: 0}
  - {x: -0.4330134, y: 0.50000143, z: -0.24999999}
  - {x: -0.4330134, y: -0.49999854, z: -0.24999999}
  - {x: -0.0000006854534, y: -0.49999854, z: 0}
  - {x: -0.25000063, y: -0.49999854, z: -0.43301272}
  - {x: -0.4330134, y: 0.50000143, z: -0.24999999}
  - {x: -0.0000006854534, y: 0.50000143, z: 0}
  - {x: -0.25000063, y: 0.50000143, z: -0.43301272}
  - {x: -0.25000063, y: -0.49999854, z: -0.43301272}
  - {x: -0.0000006854534, y: -0.49999854, z: 0}
  - {x: -0.0000006854534, y: -0.49999854, z: -0.5}
  - {x: -0.25000063, y: 0.50000143, z: -0.43301272}
  - {x: -0.0000006854534, y: 0.50000143, z: 0}
  - {x: -0.0000006854534, y: 0.50000143, z: -0.5}
  - {x: -0.0000006854534, y: -0.49999854, z: -0.5}
  - {x: -0.0000006854534, y: -0.49999854, z: 0}
  - {x: 0.24999925, y: -0.49999854, z: -0.43301272}
  - {x: -0.0000006854534, y: 0.50000143, z: -0.5}
  - {x: -0.0000006854534, y: 0.50000143, z: 0}
  - {x: 0.24999925, y: 0.50000143, z: -0.43301272}
  - {x: 0.24999925, y: -0.49999854, z: -0.43301272}
  - {x: -0.0000006854534, y: -0.49999854, z: 0}
  - {x: 0.43301198, y: -0.49999854, z: -0.2500001}
  - {x: 0.24999925, y: 0.50000143, z: -0.43301272}
  - {x: -0.0000006854534, y: 0.50000143, z: 0}
  - {x: 0.43301198, y: 0.50000143, z: -0.2500001}
  - {x: 0.43301198, y: -0.49999854, z: -0.2500001}
  - {x: -0.0000006854534, y: -0.49999854, z: 0}
  - {x: 0.4999993, y: -0.49999854, z: 0}
  - {x: 0.43301198, y: 0.50000143, z: -0.2500001}
  - {x: -0.0000006854534, y: 0.50000143, z: 0}
  - {x: 0.4999993, y: 0.50000143, z: 0}
  m_Textures0:
  - {x: -0.12940936, y: -0.49999854}
  - {x: -0.12940936, y: 0.50000143}
  - {x: 0.12940969, y: -0.49999854}
  - {x: 0.12940969, y: 0.50000143}
  - {x: -0.12940899, y: -0.49999854}
  - {x: -0.12940899, y: 0.50000143}
  - {x: 0.12941006, y: -0.49999854}
  - {x: 0.12941006, y: 0.50000143}
  - {x: -0.1294089, y: -0.49999854}
  - {x: -0.1294089, y: 0.50000143}
  - {x: 0.12941015, y: -0.49999854}
  - {x: 0.12941015, y: 0.50000143}
  - {x: -0.12940888, y: -0.49999854}
  - {x: -0.12940888, y: 0.50000143}
  - {x: 0.12941018, y: -0.49999854}
  - {x: 0.12941018, y: 0.50000143}
  - {x: -0.12940896, y: -0.49999854}
  - {x: -0.12940896, y: 0.50000143}
  - {x: 0.12941009, y: -0.49999854}
  - {x: 0.12941009, y: 0.50000143}
  - {x: -0.12940937, y: -0.49999854}
  - {x: -0.12940937, y: 0.50000143}
  - {x: 0.12940973, y: -0.49999854}
  - {x: 0.12940973, y: 0.50000143}
  - {x: -0.12940972, y: -0.49999854}
  - {x: -0.12940972, y: 0.50000143}
  - {x: 0.12940928, y: -0.49999854}
  - {x: 0.12940928, y: 0.50000143}
  - {x: -0.12941007, y: -0.49999854}
  - {x: -0.12941007, y: 0.50000143}
  - {x: 0.12940906, y: -0.49999854}
  - {x: 0.12940906, y: 0.50000143}
  - {x: -0.12941013, y: -0.49999854}
  - {x: -0.12941013, y: 0.50000143}
  - {x: 0.12940885, y: -0.49999854}
  - {x: 0.12940885, y: 0.50000143}
  - {x: -0.12941016, y: -0.49999854}
  - {x: -0.12941016, y: 0.50000143}
  - {x: 0.1294088, y: -0.49999854}
  - {x: 0.1294088, y: 0.50000143}
  - {x: -0.12940994, y: -0.49999854}
  - {x: -0.12940994, y: 0.50000143}
  - {x: 0.12940907, y: -0.49999854}
  - {x: 0.12940907, y: 0.50000143}
  - {x: -0.12940978, y: -0.49999854}
  - {x: -0.12940978, y: 0.50000143}
  - {x: 0.12940937, y: -0.49999854}
  - {x: 0.12940937, y: 0.50000143}
  - {x: -0.4999993, y: 0}
  - {x: 0.0000006854534, y: 0}
  - {x: -0.433012, y: 0.25}
  - {x: 0.4999993, y: 0}
  - {x: -0.0000006854534, y: 0}
  - {x: 0.433012, y: 0.25}
  - {x: -0.433012, y: 0.25}
  - {x: 0.0000006854534, y: 0}
  - {x: -0.24999931, y: 0.43301272}
  - {x: 0.433012, y: 0.25}
  - {x: -0.0000006854534, y: 0}
  - {x: 0.24999931, y: 0.43301272}
  - {x: -0.24999931, y: 0.43301272}
  - {x: 0.0000006854534, y: 0}
  - {x: 0.0000006854534, y: 0.5}
  - {x: 0.24999931, y: 0.43301272}
  - {x: -0.0000006854534, y: 0}
  - {x: -0.0000006854534, y: 0.5}
  - {x: 0.0000006854534, y: 0.5}
  - {x: 0.0000006854534, y: 0}
  - {x: 0.2500007, y: 0.4330127}
  - {x: -0.0000006854534, y: 0.5}
  - {x: -0.0000006854534, y: 0}
  - {x: -0.2500007, y: 0.4330127}
  - {x: 0.2500007, y: 0.4330127}
  - {x: 0.0000006854534, y: 0}
  - {x: 0.4330134, y: 0.25000003}
  - {x: -0.2500007, y: 0.4330127}
  - {x: -0.0000006854534, y: 0}
  - {x: -0.4330134, y: 0.25000003}
  - {x: 0.4330134, y: 0.25000003}
  - {x: 0.0000006854534, y: 0}
  - {x: 0.5000007, y: -0.00000004371139}
  - {x: -0.4330134, y: 0.25000003}
  - {x: -0.0000006854534, y: 0}
  - {x: -0.5000007, y: -0.00000004371139}
  - {x: 0.5000007, y: -0.00000004371139}
  - {x: 0.0000006854534, y: 0}
  - {x: 0.4330134, y: -0.24999999}
  - {x: -0.5000007, y: -0.00000004371139}
  - {x: -0.0000006854534, y: 0}
  - {x: -0.4330134, y: -0.24999999}
  - {x: 0.4330134, y: -0.24999999}
  - {x: 0.0000006854534, y: 0}
  - {x: 0.25000063, y: -0.43301272}
  - {x: -0.4330134, y: -0.24999999}
  - {x: -0.0000006854534, y: 0}
  - {x: -0.25000063, y: -0.43301272}
  - {x: 0.25000063, y: -0.43301272}
  - {x: 0.0000006854534, y: 0}
  - {x: 0.0000006854534, y: -0.5}
  - {x: -0.25000063, y: -0.43301272}
  - {x: -0.0000006854534, y: 0}
  - {x: -0.0000006854534, y: -0.5}
  - {x: 0.0000006854534, y: -0.5}
  - {x: 0.0000006854534, y: 0}
  - {x: -0.24999925, y: -0.43301272}
  - {x: -0.0000006854534, y: -0.5}
  - {x: -0.0000006854534, y: 0}
  - {x: 0.24999925, y: -0.43301272}
  - {x: -0.24999925, y: -0.43301272}
  - {x: 0.0000006854534, y: 0}
  - {x: -0.43301198, y: -0.2500001}
  - {x: 0.24999925, y: -0.43301272}
  - {x: -0.0000006854534, y: 0}
  - {x: 0.43301198, y: -0.2500001}
  - {x: -0.43301198, y: -0.2500001}
  - {x: 0.0000006854534, y: 0}
  - {x: -0.4999993, y: 0}
  - {x: 0.43301198, y: -0.2500001}
  - {x: -0.0000006854534, y: 0}
  - {x: 0.4999993, y: 0}
  m_Textures2: []
  m_Textures3: []
  m_Tangents:
  - {x: 0.000000030853634, y: 0, z: 1, w: -1}
  - {x: 0.000000030853634, y: 0, z: 1, w: -1}
  - {x: -0.5, y: 0, z: 0.86602545, w: -1}
  - {x: -0.5, y: 0, z: 0.86602545, w: -1}
  - {x: -0.49999997, y: 0, z: 0.86602545, w: -1}
  - {x: -0.49999997, y: 0, z: 0.86602545, w: -1}
  - {x: -0.86602545, y: 0, z: 0.50000006, w: -1}
  - {x: -0.86602545, y: 0, z: 0.50000006, w: -1}
  - {x: -0.86602545, y: 0, z: 0.49999997, w: -1}
  - {x: -0.86602545, y: 0, z: 0.49999997, w: -1}
  - {x: -1, y: 0, z: -0.000000030853634, w: -1}
  - {x: -1, y: 0, z: -0.000000030853634, w: -1}
  - {x: -1, y: 0, z: -0.000000030853634, w: -1}
  - {x: -1, y: 0, z: -0.000000030853634, w: -1}
  - {x: -0.86602545, y: 0, z: -0.4999999, w: -1}
  - {x: -0.86602545, y: 0, z: -0.4999999, w: -1}
  - {x: -0.86602545, y: 0, z: -0.49999994, w: -1}
  - {x: -0.86602545, y: 0, z: -0.49999994, w: -1}
  - {x: -0.50000006, y: 0, z: -0.8660254, w: -1}
  - {x: -0.50000006, y: 0, z: -0.8660254, w: -1}
  - {x: -0.50000006, y: 0, z: -0.8660254, w: -1}
  - {x: -0.50000006, y: 0, z: -0.8660254, w: -1}
  - {x: 0.00000006170727, y: 0, z: -1, w: -1}
  - {x: 0.00000006170727, y: 0, z: -1, w: -1}
  - {x: 0.00000006170727, y: 0, z: -1, w: -1}
  - {x: 0.00000006170727, y: 0, z: -1, w: -1}
  - {x: 0.5000001, y: 0, z: -0.8660254, w: -1}
  - {x: 0.5000001, y: 0, z: -0.8660254, w: -1}
  - {x: 0.50000006, y: 0, z: -0.8660254, w: -1}
  - {x: 0.50000006, y: 0, z: -0.8660254, w: -1}
  - {x: 0.86602545, y: 0, z: -0.49999994, w: -1}
  - {x: 0.86602545, y: 0, z: -0.49999994, w: -1}
  - {x: 0.86602545, y: 0, z: -0.49999994, w: -1}
  - {x: 0.86602545, y: 0, z: -0.49999994, w: -1}
  - {x: 1, y: 0, z: 0, w: -1}
  - {x: 1, y: 0, z: 0, w: -1}
  - {x: 1, y: 0, z: 0, w: -1}
  - {x: 1, y: 0, z: 0, w: -1}
  - {x: 0.8660255, y: 0, z: 0.49999988, w: -1}
  - {x: 0.8660255, y: 0, z: 0.49999988, w: -1}
  - {x: 0.8660255, y: 0, z: 0.49999988, w: -1}
  - {x: 0.8660255, y: 0, z: 0.49999988, w: -1}
  - {x: 0.5000001, y: 0, z: 0.8660253, w: -1}
  - {x: 0.5000001, y: 0, z: 0.8660253, w: -1}
  - {x: 0.5000001, y: 0, z: 0.8660253, w: -1}
  - {x: 0.5000001, y: 0, z: 0.8660253, w: -1}
  - {x: 0, y: 0, z: 1, w: -1}
  - {x: 0, y: 0, z: 1, w: -1}
  - {x: -1, y: 0, z: 0, w: -1}
  - {x: -1, y: 0, z: 0, w: -1}
  - {x: -1, y: 0, z: 0, w: -1}
  - {x: 1, y: 0, z: 0, w: -1}
  - {x: 1, y: 0, z: 0, w: -1}
  - {x: 1, y: 0, z: 0, w: -1}
  - {x: -1, y: 0, z: 0, w: -1}
  - {x: -1, y: 0, z: 0, w: -1}
  - {x: -1, y: 0, z: 0, w: -1}
  - {x: 1, y: 0, z: 0, w: -1}
  - {x: 1, y: 0, z: 0, w: -1}
  - {x: 1, y: 0, z: 0, w: -1}
  - {x: -1, y: 0, z: 0, w: -1}
  - {x: -1, y: 0, z: 0, w: -1}
  - {x: -1, y: 0, z: 0, w: -1}
  - {x: 1, y: 0, z: 0, w: -1}
  - {x: 1, y: 0, z: 0, w: -1}
  - {x: 1, y: 0, z: 0, w: -1}
  - {x: -1, y: 0, z: 0, w: -1}
  - {x: -1, y: 0, z: 0, w: -1}
  - {x: -1, y: 0, z: 0, w: -1}
  - {x: 1, y: 0, z: 0, w: -1}
  - {x: 1, y: 0, z: 0, w: -1}
  - {x: 1, y: 0, z: 0, w: -1}
  - {x: -1, y: 0, z: 0, w: -1}
  - {x: -1, y: 0, z: 0, w: -1}
  - {x: -1, y: 0, z: 0, w: -1}
  - {x: 1, y: 0, z: 0, w: -1}
  - {x: 1, y: 0, z: 0, w: -1}
  - {x: 1, y: 0, z: 0, w: -1}
  - {x: -1, y: 0, z: 0, w: -1}
  - {x: -1, y: 0, z: 0, w: -1}
  - {x: -1, y: 0, z: 0, w: -1}
  - {x: 1, y: 0, z: 0, w: -1}
  - {x: 1, y: 0, z: 0, w: -1}
  - {x: 1, y: 0, z: 0, w: -1}
  - {x: -1, y: 0, z: 0, w: -1}
  - {x: -1, y: 0, z: 0, w: -1}
  - {x: -1, y: 0, z: 0, w: -1}
  - {x: 1, y: 0, z: 0, w: -1}
  - {x: 1, y: 0, z: 0, w: -1}
  - {x: 1, y: 0, z: 0, w: -1}
  - {x: -1, y: 0, z: 0, w: -1}
  - {x: -1, y: 0, z: 0, w: -1}
  - {x: -1, y: 0, z: 0, w: -1}
  - {x: 1, y: 0, z: 0, w: -1}
  - {x: 1, y: 0, z: 0, w: -1}
  - {x: 1, y: 0, z: 0, w: -1}
  - {x: -1, y: 0, z: 0, w: -1}
  - {x: -1, y: 0, z: 0, w: -1}
  - {x: -1, y: 0, z: 0, w: -1}
  - {x: 1, y: 0, z: 0, w: -1}
  - {x: 1, y: 0, z: 0, w: -1}
  - {x: 1, y: 0, z: 0, w: -1}
  - {x: -1, y: 0, z: 0, w: -1}
  - {x: -1, y: 0, z: 0, w: -1}
  - {x: -1, y: 0, z: 0, w: -1}
  - {x: 1, y: 0, z: 0, w: -1}
  - {x: 1, y: 0, z: 0, w: -1}
  - {x: 1, y: 0, z: 0, w: -1}
  - {x: -1, y: 0, z: 0, w: -1}
  - {x: -1, y: 0, z: 0, w: -1}
  - {x: -1, y: 0, z: 0, w: -1}
  - {x: 1, y: 0, z: 0, w: -1}
  - {x: 1, y: 0, z: 0, w: -1}
  - {x: 1, y: 0, z: 0, w: -1}
  - {x: -1, y: 0, z: 0, w: -1}
  - {x: -1, y: 0, z: 0, w: -1}
  - {x: -1, y: 0, z: 0, w: -1}
  - {x: 1, y: 0, z: 0, w: -1}
  - {x: 1, y: 0, z: 0, w: -1}
  - {x: 1, y: 0, z: 0, w: -1}
  m_Colors: []
  m_UnwrapParameters:
    m_HardAngle: 88
    m_PackMargin: 20
    m_AngleError: 8
    m_AreaError: 15
  m_PreserveMeshAssetOnDestroy: 0
  assetGuid: 
  m_IsSelectable: 1
  m_SelectedFaces: 
  m_SelectedEdges: []
  m_SelectedVertices: 
--- !u!64 &7918808713860000635
MeshCollider:
  m_ObjectHideFlags: 0
  m_CorrespondingSourceObject: {fileID: 0}
  m_PrefabInstance: {fileID: 0}
  m_PrefabAsset: {fileID: 0}
  m_GameObject: {fileID: 4888585523249299635}
  m_Material: {fileID: 0}
  m_IsTrigger: 0
  m_Enabled: 0
  serializedVersion: 3
  m_Convex: 0
  m_CookingOptions: 14
  m_Mesh: {fileID: 0}
--- !u!1 &6992219649255446162
GameObject:
  m_ObjectHideFlags: 0
  m_CorrespondingSourceObject: {fileID: 0}
  m_PrefabInstance: {fileID: 0}
  m_PrefabAsset: {fileID: 0}
  serializedVersion: 6
  m_Component:
  - component: {fileID: 8827058983633773214}
  m_Layer: 0
  m_Name: Monster_Attack
  m_TagString: Untagged
  m_Icon: {fileID: 0}
  m_NavMeshLayer: 0
  m_StaticEditorFlags: 0
  m_IsActive: 0
--- !u!4 &8827058983633773214
Transform:
  m_ObjectHideFlags: 0
  m_CorrespondingSourceObject: {fileID: 0}
  m_PrefabInstance: {fileID: 0}
  m_PrefabAsset: {fileID: 0}
  m_GameObject: {fileID: 6992219649255446162}
  m_LocalRotation: {x: -0, y: -0, z: -0, w: 1}
  m_LocalPosition: {x: -12.73, y: 3.3492131, z: 28.826538}
  m_LocalScale: {x: 0.07634958, y: 1.4083, z: 1.4083}
  m_Children:
  - {fileID: 1957935746633569148}
  - {fileID: 4857710110112666352}
  m_Father: {fileID: 0}
  m_RootOrder: 0
  m_LocalEulerAnglesHint: {x: 0, y: 0, z: 0}
