%YAML 1.1
%TAG !u! tag:unity3d.com,2011:
--- !u!221 &22100000
AnimatorOverrideController:
  m_ObjectHideFlags: 0
  m_CorrespondingSourceObject: {fileID: 0}
  m_PrefabInstance: {fileID: 0}
  m_PrefabAsset: {fileID: 0}
  m_Name: PressurePlate_FSM
  m_Controller: {fileID: 9100000, guid: 72b03b25a80ebcc45b60430dd3be09c4, type: 2}
  m_Clips:
  - m_OriginalClip: {fileID: 7400000, guid: 339f92d82ae286c4695661fb45c133fe, type: 2}
    m_OverrideClip: {fileID: 7400000, guid: ddc28f6070531194dad13166f913236d, type: 2}
  - m_OriginalClip: {fileID: 7400000, guid: d3ffb46aeab9e3c4a97d339baf017974, type: 2}
    m_OverrideClip: {fileID: 7400000, guid: 25a61edb91bdf724084297a16416f569, type: 2}
