%YAML 1.1
%TAG !u! tag:unity3d.com,2011:
--- !u!114 &11400000
MonoBehaviour:
  m_ObjectHideFlags: 0
  m_CorrespondingSourceObject: {fileID: 0}
  m_PrefabInstance: {fileID: 0}
  m_PrefabAsset: {fileID: 0}
  m_GameObject: {fileID: 0}
  m_Enabled: 1
  m_EditorHideFlags: 0
  m_Script: {fileID: 11500000, guid: 696b92c305704c84fb3f7a11d0c474fd, type: 3}
  m_Name: SurfaceType_Ice
  m_EditorClassIdentifier: 
  m_ImpactEffects:
  - m_SurfaceImpact: {fileID: 11400000, guid: 8d265f95d76979647ae3d90f06c88211, type: 2}
    m_SurfaceEffect: {fileID: 11400000, guid: d63e37a8c8dd89a4ba06a778ce546b5a, type: 2}
  m_AllowFootprints: 1
