%YAML 1.1
%TAG !u! tag:unity3d.com,2011:
--- !u!114 &11400000
MonoBehaviour:
  m_ObjectHideFlags: 0
  m_CorrespondingSourceObject: {fileID: 0}
  m_PrefabInstance: {fileID: 0}
  m_PrefabAsset: {fileID: 0}
  m_GameObject: {fileID: 0}
  m_Enabled: 1
  m_EditorHideFlags: 0
  m_Script: {fileID: 11500000, guid: 1c9437dfa59d0164c89d59c14938f889, type: 3}
  m_Name: SurfaceEffect_Ice
  m_EditorClassIdentifier: 
  m_SpawnedObjects: []
  m_Decals: []
  m_MinDecalScale: 1
  m_MaxDecalScale: 1
  m_AllowedDecalEdgeOverlap: 0.25
  m_AudioClips:
  - {fileID: 8300000, guid: 70fa9753d8436d54d963cc510e37b041, type: 3}
  - {fileID: 8300000, guid: 8dd7032d5bb89914d9e105a905aaca30, type: 3}
  - {fileID: 8300000, guid: 778399e14e63424419dff5b729cb0702, type: 3}
  m_MinAudioVolume: 1
  m_MaxAudioVolume: 1
  m_MinAudioPitch: 1
  m_MaxAudioPitch: 1
  m_OneClipPerFrame: 0
  m_RandomClipSelection: 1
  m_StateName: 
  m_StateDisableTimer: 10
