%YAML 1.1
%TAG !u! tag:unity3d.com,2011:
--- !u!21 &2100000
Material:
  serializedVersion: 6
  m_ObjectHideFlags: 0
  m_CorrespondingSourceObject: {fileID: 0}
  m_PrefabInstance: {fileID: 0}
  m_PrefabAsset: {fileID: 0}
  m_Name: SnowGround_LowPoly 1
  m_Shader: {fileID: 45, guid: 0000000000000000f000000000000000, type: 0}
  m_ShaderKeywords: _AOUV_UV0 _EMISSION _GRADIENTSPACE_WORLD_SPACE _GRADSETTINGS_B_USE_GLOBAL
    _GRADSETTINGS_D_USE_GLOBAL _GRADSETTINGS_F_USE_GLOBAL _GRADSETTINGS_L_USE_GLOBAL
    _GRADSETTINGS_R_USE_GLOBAL _GRADSETTINGS_T_USE_GLOBAL _LMAPBLENDINGMODE_ADD _MODE_OPAQUE
    _NORMALMAP _PARALLAXMAP _SHADING_B_VERTEX_COLOR _SHADING_D_VERTEX_COLOR _SHADING_F_VERTEXCOLOR
    _SHADING_L_VERTEX_COLOR _SHADING_R_VERTEX_COLOR _SHADING_T_VERTEX_COLOR
  m_LightmapFlags: 1
  m_EnableInstancingVariants: 0
  m_DoubleSidedGI: 0
  m_CustomRenderQueue: -1
  stringTagMap: {}
  disabledShaderPasses: []
  m_SavedProperties:
    serializedVersion: 3
    m_TexEnvs:
    - _AOTexture:
        m_Texture: {fileID: 2800000, guid: 405dbb22e24979d4695965520b8bb3ba, type: 3}
        m_Scale: {x: 1, y: 1}
        m_Offset: {x: 0, y: 0}
    - _AlphaTex:
        m_Texture: {fileID: 0}
        m_Scale: {x: 1, y: 1}
        m_Offset: {x: 0, y: 0}
    - _BumpMap:
        m_Texture: {fileID: 2800000, guid: 7512c0f38ba3a61409b0a6cdcf06a97b, type: 3}
        m_Scale: {x: 1, y: 1}
        m_Offset: {x: 0, y: 0}
    - _Cube:
        m_Texture: {fileID: 0}
        m_Scale: {x: 1, y: 1}
        m_Offset: {x: 0, y: 0}
    - _DetailAlbedoMap:
        m_Texture: {fileID: 0}
        m_Scale: {x: 1, y: 1}
        m_Offset: {x: 0, y: 0}
    - _DetailMask:
        m_Texture: {fileID: 0}
        m_Scale: {x: 1, y: 1}
        m_Offset: {x: 0, y: 0}
    - _DetailNormalMap:
        m_Texture: {fileID: 0}
        m_Scale: {x: 1, y: 1}
        m_Offset: {x: 0, y: 0}
    - _EmissionMap:
        m_Texture: {fileID: 2800000, guid: 4e497136084a54343ad5163c1f05395e, type: 3}
        m_Scale: {x: 0.25, y: 0.25}
        m_Offset: {x: 0, y: 0}
    - _Illum:
        m_Texture: {fileID: 2484806087755860, guid: 137ffc1a31174474f86e60b3379b1568,
          type: 3}
        m_Scale: {x: 1, y: 1}
        m_Offset: {x: 0, y: 0}
    - _LightMap:
        m_Texture: {fileID: 670621217887750983, guid: 5516c94eacbf21649b1d5e611d4c8082,
          type: 3}
        m_Scale: {x: 0.2, y: 0.2}
        m_Offset: {x: 0, y: 0}
    - _MainTex:
        m_Texture: {fileID: 2800000, guid: 4e497136084a54343ad5163c1f05395e, type: 3}
        m_Scale: {x: 0.25, y: 0.25}
        m_Offset: {x: 0, y: 0}
    - _MainTexture:
        m_Texture: {fileID: 2800000, guid: 4e6f15634c50f7b46950e66965762738, type: 3}
        m_Scale: {x: 1, y: 1}
        m_Offset: {x: 0, y: 0}
    - _MetallicGlossMap:
        m_Texture: {fileID: 0}
        m_Scale: {x: 1, y: 1}
        m_Offset: {x: 0, y: 0}
    - _NormalMap:
        m_Texture: {fileID: 2800000, guid: d5d11619e9ac7424690f1ad93fb5b1bd, type: 3}
        m_Scale: {x: 0.25, y: 0.25}
        m_Offset: {x: 0, y: 0}
    - _OcclusionMap:
        m_Texture: {fileID: 2800000, guid: 32e1d4471a3a6314e9307435cb2fd1c0, type: 3}
        m_Scale: {x: 1, y: 1}
        m_Offset: {x: 0, y: 0}
    - _ParallaxMap:
        m_Texture: {fileID: 2800000, guid: 29930e66cdca91541a4d0566efdf8c3d, type: 3}
        m_Scale: {x: 1, y: 1}
        m_Offset: {x: 0, y: 0}
    - _Ramp:
        m_Texture: {fileID: 2800000, guid: 46188a2aa2b96ab45a6e2f84dc622d54, type: 3}
        m_Scale: {x: 0.25, y: 0.25}
        m_Offset: {x: 0, y: 0}
    - _SpecGlossMap:
        m_Texture: {fileID: 0}
        m_Scale: {x: 1, y: 1}
        m_Offset: {x: 0, y: 0}
    - _ToonShade:
        m_Texture: {fileID: 8900000, guid: 9b6c4c0478f47d543ae801e42e6a1172, type: 3}
        m_Scale: {x: 0.3, y: 0.3}
        m_Offset: {x: 0, y: 0}
    m_Floats:
    - PixelSnap: 0
    - _AOEnable: 0
    - _AOPower: 0
    - _AOuv: 0
    - _AmbientPower: 2
    - _Brightness: -0.265
    - _BumpScale: 0.04
    - _ColorCorrectionEnable: 0
    - _Cull: 2
    - _Cutoff: 0.5
    - _DetailNormalMapScale: 1
    - _DirX: 0
    - _DirY: 0
    - _DontMix: 0
    - _DstBlend: 0
    - _Emission: 0.1
    - _EnableExternalAlpha: 0
    - _Exponent: 1
    - _Fade: 1
    - _FogHeight: 10
    - _FogYStartPos: 0
    - _GSpace: 0
    - _GlossMapScale: 0.685
    - _Glossiness: 0.456
    - _GlossyReflections: 1
    - _GradSettings_B: 0
    - _GradSettings_D: 0
    - _GradSettings_F: 0
    - _GradSettings_L: 0
    - _GradSettings_R: 0
    - _GradSettings_T: 0
    - _GradientHeight_B: 1
    - _GradientHeight_D: 1
    - _GradientHeight_F: 1
    - _GradientHeight_G: 1
    - _GradientHeight_L: 1
    - _GradientHeight_R: 1
    - _GradientHeight_T: 1
    - _GradientSpace: 0
    - _HFogEnable: 0
    - _Intensity: 1
    - _LMPower: 0
    - _LmapBlendingMode: 0
    - _LmapEnable: 0
    - _MainTexturePower: -1
    - _Metallic: 0.51
    - _Mode: 0
    - _OcclusionStrength: 0.651
    - _OtherSettings: 0
    - _Outline: 0.0104
    - _Parallax: 0.0773
    - _RealtimeShadow: 0
    - _RimBrightness: 3.629
    - _RimEnable: 0
    - _RimPower: 0
    - _Rotation_B: 0
    - _Rotation_D: 0
    - _Rotation_F: 0
    - _Rotation_G: 0
    - _Rotation_L: 0
    - _Rotation_R: 0
    - _Rotation_T: 0
    - _Saturation: 0.834
    - _Shading_B: 0
    - _Shading_D: 0
    - _Shading_F: 0
    - _Shading_L: 0
    - _Shading_R: 0
    - _Shading_T: 0
    - _ShowAO: 0
    - _ShowAmbientSettings: 0
    - _ShowBack: 0
    - _ShowBottom: 0
    - _ShowColorCorrection: 0
    - _ShowCustomShading: 0
    - _ShowFog: 0
    - _ShowFront: 0
    - _ShowGlobalGradientSettings: 0
    - _ShowLMap: 0
    - _ShowLeft: 0
    - _ShowRight: 0
    - _ShowTexture: 0
    - _ShowTop: 0
    - _SmoothnessTextureChannel: 0
    - _SpecularHighlights: 1
    - _SrcBlend: 1
    - _UVSec: 0
    - _UnityFogEnable: 0
    - _ZWrite: 1
    m_Colors:
    - _AOColor: {r: 1, g: 1, b: 1, a: 1}
    - _AmbientColor: {r: 0.2707369, g: 0.32733145, b: 0.33962262, a: 0}
    - _BottomColor: {r: 0.23, g: 0, b: 0.95, a: 1}
    - _Color: {r: 0.9386792, g: 0.9926038, b: 1, a: 1}
    - _Color1: {r: 0.9027234, g: 0.9245283, b: 0.9231345, a: 0}
    - _Color1_B: {r: 1, g: 1, b: 1, a: 1}
    - _Color1_D: {r: 1, g: 1, b: 1, a: 1}
    - _Color1_F: {r: 1, g: 1, b: 1, a: 1}
    - _Color1_L: {r: 1, g: 1, b: 1, a: 1}
    - _Color1_R: {r: 1, g: 1, b: 1, a: 1}
    - _Color1_T: {r: 1, g: 1, b: 1, a: 1}
    - _Color2: {r: 0.060742266, g: 0.2577965, b: 0.3301887, a: 0}
    - _Color2_B: {r: 1, g: 1, b: 1, a: 1}
    - _Color2_D: {r: 1, g: 1, b: 1, a: 1}
    - _Color2_F: {r: 1, g: 1, b: 1, a: 1}
    - _Color2_L: {r: 1, g: 1, b: 1, a: 1}
    - _Color2_R: {r: 1, g: 1, b: 1, a: 1}
    - _Color2_T: {r: 1, g: 1, b: 1, a: 1}
    - _Color_Fog: {r: 0.509434, g: 0.509434, b: 0.509434, a: 1}
    - _EmissionColor: {r: 0.14901961, g: 0.14901961, b: 0.14901961, a: 1}
    - _Flip: {r: 1, g: 1, b: 1, a: 1}
    - _GizmoPosition_B: {r: 0, g: 0, b: 10, a: 10}
    - _GizmoPosition_D: {r: 0, g: 0, b: 10, a: 10}
    - _GizmoPosition_F: {r: 0, g: 0, b: 10, a: 10}
    - _GizmoPosition_L: {r: 0, g: 0, b: 10, a: 10}
    - _GizmoPosition_R: {r: 0, g: 0, b: 10, a: 10}
    - _GizmoPosition_T: {r: 0, g: 0, b: 10, a: 10}
    - _GradientXStartPos_D: {r: 0, g: 0, b: 0, a: 0}
    - _GradientXStartPos_T: {r: 0, g: 0, b: 0, a: 0}
    - _GradientYStartPos_B: {r: 0, g: 0, b: 0, a: 0}
    - _GradientYStartPos_F: {r: 0, g: 0, b: 0, a: 0}
    - _GradientYStartPos_G: {r: 0, g: 0, b: 0, a: 0}
    - _GradientYStartPos_L: {r: 0, g: 0, b: 0, a: 0}
    - _GradientYStartPos_R: {r: 0, g: 0, b: 0, a: 0}
    - _LMColor: {r: 1, g: 1, b: 1, a: 1}
    - _OutlineColor: {r: 0, g: 0, b: 0, a: 1}
    - _ReflectColor: {r: 1, g: 1, b: 1, a: 0.5}
    - _RendererColor: {r: 1, g: 1, b: 1, a: 1}
    - _RimColor: {r: 1, g: 1, b: 1, a: 1}
    - _ShadowColor: {r: 0.1, g: 0.1, b: 0.1, a: 1}
    - _SpecColor: {r: 0.6774653, g: 0.8160434, b: 0.8301887, a: 1}
    - _TColor: {r: 0.5999911, g: 0.9150943, b: 0.8918663, a: 1}
    - _TintColor: {r: 1, g: 1, b: 1, a: 1}
    - _UpVector: {r: 0, g: 1, b: 0, a: 0}
