%YAML 1.1
%TAG !u! tag:unity3d.com,2011:
--- !u!114 &11400000
MonoBehaviour:
  m_ObjectHideFlags: 0
  m_PrefabParentObject: {fileID: 0}
  m_PrefabInternal: {fileID: 0}
  m_GameObject: {fileID: 0}
  m_Enabled: 1
  m_EditorHideFlags: 0
  m_Script: {fileID: 11500000, guid: 114f4adff47823d4aadb77159ef6731f, type: 3}
  m_Name: CrouchAnimatorAudioStatePreset
  m_EditorClassIdentifier: 
  m_Data:
    m_ObjectType: Opsive.UltimateCharacterController.Items.AnimatorAudioStates.AnimatorAudioStateSet+AnimatorAudioState
    m_ValueHashes: 6a6a25e2
    m_ValuePositions: 00000000
    m_Values: 00
    m_UnityObjects: []
    m_Version: 2.0
