# This file uses centimeters as units for non-parametric coordinates.

mtllib SmallQuartz.mtl
g default
v 7.194435 0.044032 3.766904
v 7.259065 -0.149296 3.916585
v 7.293886 -0.407779 3.884186
v 7.261660 -0.316875 3.805528
v 7.199488 -0.282335 3.550617
v 7.165375 -0.069549 3.552733
v 10.442717 0.571950 3.046187
v 10.453546 0.369878 3.207805
v 10.247773 0.072292 3.228788
v 10.326481 0.181226 3.125517
v 10.313409 0.223746 2.859712
v 10.162662 0.417577 2.887705
v 10.271912 0.368688 3.072198
v 10.272558 0.366754 3.073695
v 10.272907 0.364170 3.073371
v 10.272584 0.365079 3.072585
v 10.271963 0.365424 3.070036
v 10.271622 0.367552 3.070057
v 7.514016 -0.135175 3.690042
v 7.514307 -0.134039 3.692184
v 7.514358 -0.137303 3.690021
v 7.514979 -0.137648 3.692570
v 7.515302 -0.138557 3.693356
v 7.514953 -0.135973 3.693680
vt 0.250000 0.000000
vt 0.750000 0.000000
vt 1.000000 0.500000
vt 0.750000 1.000000
vt 0.250000 1.000000
vt 0.000000 0.500000
vt 0.250000 0.000000
vt 0.750000 0.000000
vt 1.000000 0.500000
vt 0.750000 1.000000
vt 0.250000 1.000000
vt 0.000000 0.500000
vt 0.250000 0.000000
vt 0.750000 0.000000
vt 1.000000 0.500000
vt 0.750000 1.000000
vt 0.250000 1.000000
vt 0.000000 0.500000
vt 0.250000 0.000000
vt 0.750000 0.000000
vt 1.000000 0.500000
vt 0.750000 1.000000
vt 0.250000 1.000000
vt 0.000000 0.500000
vt 0.250000 0.000000
vt 0.000000 0.500000
vt 0.250000 1.000000
vt 0.750000 1.000000
vt 1.000000 0.500000
vt 0.750000 0.000000
vt 0.250000 0.000000
vt 0.750000 0.000000
vt 1.000000 0.500000
vt 0.750000 1.000000
vt 0.250000 1.000000
vt 0.000000 0.500000
vn -0.964191 -0.156688 0.213975
vn -0.964191 -0.156689 0.213975
vn -0.964191 -0.156689 0.213975
vn -0.964191 -0.156689 0.213975
vn -0.964191 -0.156689 0.213975
vn -0.964191 -0.156689 0.213975
vn 0.964195 0.156703 -0.213943
vn 0.964195 0.156703 -0.213943
vn 0.964195 0.156703 -0.213943
vn 0.964195 0.156703 -0.213943
vn 0.964195 0.156703 -0.213943
vn 0.964195 0.156703 -0.213943
vn -0.061457 -0.623799 -0.779165
vn -0.061457 -0.623799 -0.779165
vn -0.061457 -0.623799 -0.779165
vn -0.061457 -0.623799 -0.779165
vn -0.234026 0.089812 -0.968073
vn -0.234026 0.089812 -0.968073
vn -0.234026 0.089812 -0.968073
vn -0.234026 0.089812 -0.968073
vn 0.047077 0.663108 0.747042
vn 0.047077 0.663108 0.747041
vn 0.047077 0.663108 0.747042
vn 0.047077 0.663108 0.747041
vn -0.140492 0.975982 0.166497
vn -0.140492 0.975982 0.166497
vn -0.140492 0.975982 0.166497
vn -0.140492 0.975982 0.166497
vn 0.214990 0.024737 0.976303
vn 0.214990 0.024737 0.976303
vn 0.214990 0.024737 0.976303
vn 0.214990 0.024737 0.976303
vn 0.254079 -0.868298 0.426032
vn 0.254079 -0.868298 0.426032
vn 0.254079 -0.868298 0.426032
vn 0.254079 -0.868298 0.426032
vn 0.846759 -0.439763 -0.299344
vn 0.846759 -0.439763 -0.299344
vn 0.846759 -0.439763 -0.299344
vn 0.846759 -0.439763 -0.299344
vn -0.964198 -0.156703 0.213933
vn -0.964198 -0.156703 0.213933
vn -0.964198 -0.156703 0.213933
vn -0.964198 -0.156703 0.213933
vn 0.070795 0.625345 0.777131
vn 0.070795 0.625345 0.777131
vn 0.070795 0.625345 0.777131
vn 0.070795 0.625345 0.777131
vn 0.229718 -0.090517 0.969039
vn 0.229718 -0.090517 0.969039
vn 0.229718 -0.090517 0.969039
vn 0.229718 -0.090517 0.969039
vn -0.057221 -0.664782 -0.744843
vn -0.057221 -0.664782 -0.744843
vn -0.057221 -0.664782 -0.744843
vn -0.057221 -0.664782 -0.744843
vn 0.123017 -0.978984 -0.162654
vn 0.123017 -0.978984 -0.162654
vn 0.123018 -0.978984 -0.162654
vn 0.123018 -0.978984 -0.162654
vn -0.212763 -0.024398 -0.976799
vn -0.212763 -0.024398 -0.976799
vn -0.212763 -0.024398 -0.976799
vn -0.212763 -0.024398 -0.976799
vn -0.236975 0.871232 -0.429882
vn -0.236975 0.871232 -0.429882
vn -0.236975 0.871232 -0.429882
vn -0.236975 0.871232 -0.429882
vn 0.822908 -0.001315 -0.568174
vn 0.822908 -0.001315 -0.568174
vn 0.822908 -0.001315 -0.568174
vn 0.822908 -0.001315 -0.568174
vn -0.964198 -0.156703 0.213933
vn -0.964198 -0.156703 0.213933
vn -0.964198 -0.156703 0.213933
vn -0.964198 -0.156703 0.213933
s off
g quartz10 quartzGroup1
usemtl initialShadingGroup
f 13/13/1 18/18/2 17/17/3 16/16/4 15/15/5 14/14/6
f 20/7/7 24/8/8 23/9/9 22/10/10 21/11/11 19/12/12
f 20/1/13 13/13/14 14/14/15 24/2/16
f 24/2/17 14/14/18 15/15/19 23/3/20
f 23/3/21 15/15/22 16/16/23 22/4/24
f 22/4/25 16/16/26 17/17/27 21/5/28
f 21/5/29 17/17/30 18/18/31 19/6/32
f 19/6/33 18/18/34 13/13/35 20/1/36
f 7/19/37 8/20/38 9/21/39 10/22/40
f 1/25/41 6/26/42 5/27/43 4/28/44
f 1/31/45 2/32/46 8/20/47 7/19/48
f 2/32/49 3/33/50 9/21/51 8/20/52
f 3/33/53 4/34/54 10/22/55 9/21/56
f 4/34/57 5/35/58 11/23/59 10/22/60
f 5/35/61 6/36/62 12/24/63 11/23/64
f 6/36/65 1/31/66 7/19/67 12/24/68
f 7/19/69 10/22/70 11/23/71 12/24/72
f 1/25/73 4/28/74 3/29/75 2/30/76
g default
v 6.991430 -0.384542 4.130328
v 7.274559 -0.697272 3.703537
v 7.419887 -0.301642 3.329064
v 7.281086 0.260100 3.424166
v 6.998511 0.654107 3.827239
v 6.852684 0.185225 4.223088
v 8.567731 -0.142002 4.998311
v 8.853640 -0.454303 4.573052
v 8.981285 -0.061395 4.188842
v 8.723668 0.482066 4.218518
v 8.616678 0.903089 4.718277
v 8.432176 0.428257 5.092829
v 8.559357 0.259855 4.717567
v 8.562188 0.256728 4.713299
v 8.563642 0.260684 4.709554
v 8.562254 0.266302 4.710505
v 8.559428 0.270242 4.714536
v 8.557970 0.265553 4.718495
v 7.422818 0.024972 3.929169
v 7.424206 0.019274 3.928241
v 7.424277 0.029661 3.925210
v 7.427102 0.025721 3.921180
v 7.428490 0.020103 3.920229
v 7.427037 0.016147 3.923973
vt 0.250000 0.000000
vt 0.750000 0.000000
vt 1.000000 0.500000
vt 0.750000 1.000000
vt 0.250000 1.000000
vt 0.000000 0.500000
vt 0.250000 0.000000
vt 0.750000 0.000000
vt 1.000000 0.500000
vt 0.750000 1.000000
vt 0.250000 1.000000
vt 0.000000 0.500000
vt 0.250000 0.000000
vt 0.750000 0.000000
vt 1.000000 0.500000
vt 0.750000 1.000000
vt 0.250000 1.000000
vt 0.000000 0.500000
vt 0.250000 0.000000
vt 0.750000 0.000000
vt 1.000000 0.500000
vt 0.750000 1.000000
vt 0.250000 1.000000
vt 0.000000 0.500000
vt 0.250000 0.000000
vt 0.000000 0.500000
vt 0.250000 1.000000
vt 0.750000 1.000000
vt 1.000000 0.500000
vt 0.750000 0.000000
vt 0.250000 0.000000
vt 0.750000 0.000000
vt 1.000000 0.500000
vt 0.750000 1.000000
vt 0.250000 1.000000
vt 0.000000 0.500000
vn -0.868127 -0.133575 -0.478030
vn -0.868128 -0.133575 -0.478030
vn -0.868127 -0.133575 -0.478030
vn -0.868127 -0.133575 -0.478030
vn -0.868128 -0.133575 -0.478030
vn -0.868127 -0.133575 -0.478030
vn 0.868128 0.133576 0.478028
vn 0.868128 0.133576 0.478028
vn 0.868128 0.133576 0.478028
vn 0.868128 0.133576 0.478028
vn 0.868128 0.133576 0.478028
vn 0.868128 0.133576 0.478028
vn 0.172196 0.845554 -0.505358
vn 0.172196 0.845554 -0.505358
vn 0.172196 0.845554 -0.505358
vn 0.172196 0.845554 -0.505358
vn -0.509051 0.682905 0.523934
vn -0.509051 0.682905 0.523934
vn -0.509051 0.682905 0.523934
vn -0.509051 0.682905 0.523934
vn -0.512045 -0.264838 0.817111
vn -0.512045 -0.264838 0.817111
vn -0.512045 -0.264838 0.817111
vn -0.512045 -0.264838 0.817111
vn -0.243201 -0.773358 0.585466
vn -0.243201 -0.773358 0.585466
vn -0.243201 -0.773358 0.585466
vn -0.243201 -0.773358 0.585466
vn 0.526102 -0.638179 -0.562089
vn 0.526102 -0.638179 -0.562089
vn 0.526102 -0.638179 -0.562089
vn 0.526102 -0.638179 -0.562090
vn 0.514010 0.258344 -0.817956
vn 0.514010 0.258344 -0.817956
vn 0.514010 0.258344 -0.817956
vn 0.514010 0.258344 -0.817956
vn 0.943888 0.223189 0.243440
vn 0.943888 0.223189 0.243440
vn 0.943888 0.223189 0.243440
vn 0.943888 0.223189 0.243440
vn -0.868127 -0.133576 -0.478031
vn -0.868127 -0.133576 -0.478031
vn -0.868127 -0.133576 -0.478031
vn -0.868127 -0.133576 -0.478031
vn -0.154118 -0.842957 0.515433
vn -0.154118 -0.842957 0.515433
vn -0.154118 -0.842957 0.515433
vn -0.154118 -0.842957 0.515433
vn 0.424162 -0.699822 -0.574748
vn 0.424162 -0.699822 -0.574748
vn 0.424162 -0.699822 -0.574748
vn 0.424162 -0.699822 -0.574748
vn 0.436267 0.253942 -0.863241
vn 0.436267 0.253942 -0.863241
vn 0.436267 0.253942 -0.863241
vn 0.436267 0.253942 -0.863241
vn 0.213326 0.769201 -0.602347
vn 0.213326 0.769201 -0.602347
vn 0.213326 0.769201 -0.602347
vn 0.213326 0.769201 -0.602347
vn -0.439203 0.655369 0.614485
vn -0.439203 0.655369 0.614485
vn -0.439203 0.655369 0.614485
vn -0.439203 0.655369 0.614485
vn -0.437884 -0.247348 0.864336
vn -0.437884 -0.247348 0.864336
vn -0.437884 -0.247348 0.864336
vn -0.437884 -0.247348 0.864336
vn 0.848735 0.099421 0.519389
vn 0.848734 0.099421 0.519389
vn 0.848734 0.099421 0.519389
vn 0.848734 0.099421 0.519389
vn -0.868127 -0.133576 -0.478031
vn -0.868127 -0.133576 -0.478031
vn -0.868127 -0.133576 -0.478031
vn -0.868127 -0.133576 -0.478031
s off
g quartzGroup1 quartz9
usemtl initialShadingGroup
f 37/49/77 42/54/78 41/53/79 40/52/80 39/51/81 38/50/82
f 44/43/83 48/44/84 47/45/85 46/46/86 45/47/87 43/48/88
f 44/37/89 37/49/90 38/50/91 48/38/92
f 48/38/93 38/50/94 39/51/95 47/39/96
f 47/39/97 39/51/98 40/52/99 46/40/100
f 46/40/101 40/52/102 41/53/103 45/41/104
f 45/41/105 41/53/106 42/54/107 43/42/108
f 43/42/109 42/54/110 37/49/111 44/37/112
f 35/59/113 32/56/114 33/57/115 34/58/116
f 25/61/117 30/62/118 27/65/119 26/66/120
f 25/67/121 26/68/122 32/56/123 31/55/124
f 26/68/125 27/69/126 33/57/127 32/56/128
f 27/69/129 28/70/130 34/58/131 33/57/132
f 28/70/133 29/71/134 35/59/135 34/58/136
f 29/71/137 30/72/138 36/60/139 35/59/140
f 30/72/141 25/67/142 31/55/143 36/60/144
f 31/55/145 32/56/146 35/59/147 36/60/148
f 27/65/149 30/62/150 29/63/151 28/64/152
g default
v 7.021027 0.292462 3.886031
v 7.419277 0.535507 3.757834
v 7.621230 -0.004839 3.572677
v 7.423320 -0.410655 3.584776
v 7.023477 -0.280741 3.781189
v 6.822771 -0.032207 3.912973
v 5.859997 0.778620 1.200925
v 6.284882 1.010513 1.134329
v 6.445016 0.487677 0.852459
v 6.292426 0.062885 0.969368
v 5.864717 0.204467 1.101336
v 5.586677 0.485383 1.054271
v 6.114319 0.596667 1.120178
v 6.118301 0.599098 1.118896
v 6.120321 0.593694 1.117044
v 6.118342 0.589636 1.117165
v 6.114343 0.590935 1.119129
v 6.112336 0.593420 1.120447
v 7.101928 0.094029 3.488444
v 7.103910 0.097276 3.488175
v 7.103935 0.091544 3.487127
v 7.107933 0.090244 3.485163
v 7.109912 0.094303 3.485042
v 7.107893 0.099706 3.486893
vt 0.250000 0.000000
vt 0.750000 0.000000
vt 1.000000 0.500000
vt 0.750000 1.000000
vt 0.250000 1.000000
vt 0.000000 0.500000
vt 0.250000 0.000000
vt 0.750000 0.000000
vt 1.000000 0.500000
vt 0.750000 1.000000
vt 0.250000 1.000000
vt 0.000000 0.500000
vt 0.250000 0.000000
vt 0.750000 0.000000
vt 1.000000 0.500000
vt 0.750000 1.000000
vt 0.250000 1.000000
vt 0.000000 0.500000
vt 0.250000 0.000000
vt 0.750000 0.000000
vt 1.000000 0.500000
vt 0.750000 1.000000
vt 0.250000 1.000000
vt 0.000000 0.500000
vt 0.250000 0.000000
vt 0.000000 0.500000
vt 0.250000 1.000000
vt 0.750000 1.000000
vt 1.000000 0.500000
vt 0.750000 0.000000
vt 0.250000 0.000000
vt 0.750000 0.000000
vt 1.000000 0.500000
vt 0.750000 1.000000
vt 0.250000 1.000000
vt 0.000000 0.500000
vn 0.391496 -0.163929 0.905460
vn 0.391496 -0.163929 0.905460
vn 0.391496 -0.163929 0.905460
vn 0.391496 -0.163929 0.905460
vn 0.391496 -0.163929 0.905460
vn 0.391496 -0.163929 0.905460
vn -0.391513 0.163942 -0.905450
vn -0.391513 0.163942 -0.905450
vn -0.391513 0.163942 -0.905450
vn -0.391513 0.163942 -0.905450
vn -0.391513 0.163942 -0.905450
vn -0.391513 0.163942 -0.905450
vn 0.404458 -0.845991 -0.347437
vn 0.404458 -0.845991 -0.347437
vn 0.404458 -0.845991 -0.347437
vn 0.404458 -0.845991 -0.347437
vn -0.866317 -0.417663 0.273956
vn -0.866317 -0.417663 0.273956
vn -0.866317 -0.417663 0.273956
vn -0.866317 -0.417663 0.273956
vn -0.808997 0.407177 0.423947
vn -0.808997 0.407177 0.423947
vn -0.808997 0.407177 0.423947
vn -0.808997 0.407177 0.423947
vn 0.334413 0.940602 0.058618
vn 0.334413 0.940602 0.058618
vn 0.334413 0.940602 0.058618
vn 0.334413 0.940602 0.058618
vn 0.724243 0.670419 -0.161279
vn 0.724243 0.670419 -0.161279
vn 0.724243 0.670419 -0.161279
vn 0.724243 0.670419 -0.161279
vn 0.757879 -0.497788 -0.421694
vn 0.757879 -0.497788 -0.421694
vn 0.757879 -0.497788 -0.421694
vn 0.757879 -0.497788 -0.421694
vn -0.015465 0.170758 -0.985192
vn -0.015465 0.170758 -0.985192
vn -0.015465 0.170758 -0.985192
vn -0.015465 0.170758 -0.985192
vn 0.391514 -0.163939 0.905451
vn 0.391514 -0.163939 0.905451
vn 0.391514 -0.163939 0.905451
vn 0.391514 -0.163939 0.905451
vn 0.391514 -0.163939 0.905451
vn 0.391514 -0.163939 0.905451
vn -0.411389 0.849000 0.331601
vn -0.411389 0.849000 0.331601
vn -0.411389 0.848999 0.331601
vn -0.411389 0.848999 0.331601
vn 0.857671 0.421481 -0.294542
vn 0.857671 0.421481 -0.294542
vn 0.857671 0.421481 -0.294542
vn 0.857671 0.421481 -0.294542
vn 0.809145 -0.407237 -0.423605
vn 0.809145 -0.407237 -0.423605
vn 0.809146 -0.407237 -0.423605
vn 0.809146 -0.407237 -0.423605
vn -0.322885 -0.945909 -0.031650
vn -0.322885 -0.945909 -0.031650
vn -0.322885 -0.945909 -0.031650
vn -0.322885 -0.945909 -0.031650
vn -0.713717 -0.675187 0.186361
vn -0.713717 -0.675187 0.186361
vn -0.713717 -0.675187 0.186361
vn -0.713717 -0.675187 0.186361
vn -0.759253 0.498364 0.418531
vn -0.759253 0.498364 0.418531
vn -0.759253 0.498364 0.418531
vn -0.759253 0.498364 0.418531
vn -0.450500 0.149628 -0.880148
vn -0.450500 0.149628 -0.880148
vn -0.450500 0.149628 -0.880148
vn -0.450500 0.149628 -0.880148
s off
g quartzGroup1 quartz8
usemtl initialShadingGroup
f 61/85/153 66/90/154 65/89/155 64/88/156 63/87/157 62/86/158
f 68/79/159 72/80/160 71/81/161 70/82/162 69/83/163 67/84/164
f 68/73/165 61/85/166 62/86/167 72/74/168
f 72/74/169 62/86/170 63/87/171 71/75/172
f 71/75/173 63/87/174 64/88/175 70/76/176
f 70/76/177 64/88/178 65/89/179 69/77/180
f 69/77/181 65/89/182 66/90/183 67/78/184
f 67/78/185 66/90/186 61/85/187 68/73/188
f 55/91/189 56/92/190 59/95/191 60/96/192
f 49/97/193 54/98/194 53/99/195 52/100/196 51/101/197 50/102/198
f 49/103/199 50/104/200 56/92/201 55/91/202
f 50/104/203 51/105/204 57/93/205 56/92/206
f 51/105/207 52/106/208 58/94/209 57/93/210
f 52/106/211 53/107/212 59/95/213 58/94/214
f 53/107/215 54/108/216 60/96/217 59/95/218
f 54/108/219 49/103/220 55/91/221 60/96/222
f 59/95/223 56/92/224 57/93/225 58/94/226
g default
v 7.390940 -0.637198 3.979542
v 7.586853 -0.231341 4.241830
v 7.690784 0.276329 4.117210
v 7.600823 0.481150 3.643851
v 7.408247 0.245505 3.238708
v 7.303678 -0.294660 3.390600
v 5.357808 -0.065384 4.613360
v 5.369957 0.392156 4.932935
v 5.540879 0.880985 4.787432
v 5.309571 1.125560 4.358136
v 5.169652 0.875105 3.936577
v 5.220698 0.291174 4.039957
v 5.780235 0.661646 4.582551
v 5.782194 0.665705 4.585174
v 5.783233 0.670782 4.583928
v 5.782333 0.672830 4.579194
v 5.780408 0.670473 4.575143
v 5.779362 0.665072 4.576662
v 7.125201 0.052896 3.898105
v 7.126073 0.049470 3.903995
v 7.126246 0.058297 3.896586
v 7.128172 0.060654 3.900638
v 7.129072 0.058606 3.905371
v 7.128032 0.053529 3.906618
vt 0.250000 0.000000
vt 0.750000 0.000000
vt 1.000000 0.500000
vt 0.750000 1.000000
vt 0.250000 1.000000
vt 0.000000 0.500000
vt 0.250000 0.000000
vt 0.750000 0.000000
vt 1.000000 0.500000
vt 0.750000 1.000000
vt 0.250000 1.000000
vt 0.000000 0.500000
vt 0.250000 0.000000
vt 0.750000 0.000000
vt 1.000000 0.500000
vt 0.750000 1.000000
vt 0.250000 1.000000
vt 0.000000 0.500000
vt 0.250000 0.000000
vt 0.750000 0.000000
vt 1.000000 0.500000
vt 0.750000 1.000000
vt 0.250000 1.000000
vt 0.000000 0.500000
vt 0.250000 0.000000
vt 0.000000 0.500000
vt 0.250000 1.000000
vt 0.750000 1.000000
vt 1.000000 0.500000
vt 0.750000 0.000000
vt 0.250000 0.000000
vt 0.750000 0.000000
vt 1.000000 0.500000
vt 0.750000 1.000000
vt 0.250000 1.000000
vt 0.000000 0.500000
vn 0.922025 -0.259322 -0.287441
vn 0.922025 -0.259322 -0.287441
vn 0.922025 -0.259322 -0.287441
vn 0.922025 -0.259322 -0.287441
vn 0.922025 -0.259322 -0.287441
vn 0.922025 -0.259322 -0.287441
vn -0.922028 0.259318 0.287435
vn -0.922028 0.259318 0.287434
vn -0.922028 0.259318 0.287435
vn -0.922028 0.259318 0.287435
vn -0.922028 0.259318 0.287434
vn -0.922028 0.259318 0.287434
vn -0.137938 0.583691 -0.800173
vn -0.137938 0.583691 -0.800173
vn -0.137938 0.583691 -0.800174
vn -0.137938 0.583691 -0.800173
vn -0.487722 -0.112659 -0.865699
vn -0.487722 -0.112659 -0.865699
vn -0.487722 -0.112659 -0.865699
vn -0.487722 -0.112659 -0.865699
vn -0.505350 -0.822817 -0.259986
vn -0.505350 -0.822817 -0.259986
vn -0.505350 -0.822817 -0.259986
vn -0.505350 -0.822817 -0.259986
vn -0.108971 -0.835879 0.537988
vn -0.108971 -0.835879 0.537988
vn -0.108971 -0.835879 0.537988
vn -0.108971 -0.835879 0.537988
vn 0.497063 0.144369 0.855620
vn 0.497063 0.144369 0.855620
vn 0.497063 0.144369 0.855620
vn 0.497063 0.144369 0.855620
vn 0.531783 0.763936 0.365525
vn 0.531783 0.763936 0.365525
vn 0.531783 0.763936 0.365525
vn 0.531783 0.763936 0.365525
vn -0.952982 0.134393 0.271595
vn -0.952982 0.134393 0.271595
vn -0.952982 0.134394 0.271595
vn -0.952982 0.134393 0.271595
vn 0.922027 -0.259318 -0.287437
vn 0.922027 -0.259318 -0.287437
vn 0.922027 -0.259318 -0.287437
vn 0.922027 -0.259318 -0.287437
vn 0.093285 -0.571783 0.815084
vn 0.093285 -0.571783 0.815084
vn 0.093285 -0.571783 0.815084
vn 0.093285 -0.571783 0.815084
vn 0.334424 0.159536 0.928821
vn 0.334424 0.159536 0.928821
vn 0.334424 0.159537 0.928821
vn 0.334424 0.159536 0.928821
vn 0.346902 0.883012 0.316148
vn 0.346902 0.883012 0.316148
vn 0.346902 0.883012 0.316148
vn 0.346902 0.883012 0.316148
vn 0.073667 0.846453 -0.527343
vn 0.073667 0.846453 -0.527343
vn 0.073667 0.846453 -0.527343
vn 0.073667 0.846453 -0.527343
vn -0.341030 -0.192706 -0.920089
vn -0.341030 -0.192705 -0.920089
vn -0.341030 -0.192705 -0.920089
vn -0.341030 -0.192706 -0.920088
vn -0.365686 -0.827081 -0.426861
vn -0.365686 -0.827081 -0.426861
vn -0.365686 -0.827081 -0.426861
vn -0.365686 -0.827081 -0.426861
vn -0.963347 0.000312 0.268259
vn -0.963347 0.000312 0.268259
vn -0.963347 0.000312 0.268259
vn -0.963347 0.000312 0.268259
vn 0.922027 -0.259318 -0.287437
vn 0.922027 -0.259318 -0.287437
vn 0.922027 -0.259318 -0.287437
vn 0.922027 -0.259318 -0.287437
s off
g quartzGroup1 quartz7
usemtl initialShadingGroup
f 85/121/227 90/126/228 89/125/229 88/124/230 87/123/231 86/122/232
f 92/115/233 96/116/234 95/117/235 94/118/236 93/119/237 91/120/238
f 92/109/239 85/121/240 86/122/241 96/110/242
f 96/110/243 86/122/244 87/123/245 95/111/246
f 95/111/247 87/123/248 88/124/249 94/112/250
f 94/112/251 88/124/252 89/125/253 93/113/254
f 93/113/255 89/125/256 90/126/257 91/114/258
f 91/114/259 90/126/260 85/121/261 92/109/262
f 79/127/263 80/128/264 81/129/265 82/130/266
f 75/137/267 78/134/268 77/135/269 76/136/270
f 73/139/271 74/140/272 80/128/273 79/127/274
f 74/140/275 75/141/276 81/129/277 80/128/278
f 75/141/279 76/142/280 82/130/281 81/129/282
f 76/142/283 77/143/284 83/131/285 82/130/286
f 77/143/287 78/144/288 84/132/289 83/131/290
f 78/144/291 73/139/292 79/127/293 84/132/294
f 79/127/295 82/130/296 83/131/297 84/132/298
f 73/133/299 78/134/300 75/137/301 74/138/302
g default
v 7.083866 0.331826 4.180976
v 7.351901 -0.133302 4.261583
v 7.497863 -0.367812 3.790586
v 7.374250 -0.136943 3.304951
v 7.103628 0.328606 3.335081
v 6.959252 0.562858 3.738140
v 9.487755 1.725905 4.231829
v 9.773295 1.270929 4.312806
v 9.907863 1.029810 3.841568
v 9.983171 1.376040 3.360141
v 9.513483 1.726146 3.386061
v 9.565686 2.074398 3.793278
v 9.560251 1.413845 3.792716
v 9.562932 1.409194 3.793522
v 9.564391 1.406849 3.788812
v 9.563155 1.409158 3.783955
v 9.560448 1.413813 3.784257
v 9.559005 1.416156 3.788287
v 7.570386 0.302228 3.786115
v 7.571632 0.299918 3.790543
v 7.571829 0.299886 3.782084
v 7.574536 0.295230 3.781783
v 7.575772 0.292922 3.786639
v 7.574312 0.295267 3.791349
vt 0.250000 0.000000
vt 0.750000 0.000000
vt 1.000000 0.500000
vt 0.750000 1.000000
vt 0.250000 1.000000
vt 0.000000 0.500000
vt 0.250000 0.000000
vt 0.750000 0.000000
vt 1.000000 0.500000
vt 0.750000 1.000000
vt 0.250000 1.000000
vt 0.000000 0.500000
vt 0.250000 0.000000
vt 0.750000 0.000000
vt 1.000000 0.500000
vt 0.750000 1.000000
vt 0.250000 1.000000
vt 0.000000 0.500000
vt 0.250000 0.000000
vt 0.750000 0.000000
vt 1.000000 0.500000
vt 0.750000 1.000000
vt 0.250000 1.000000
vt 0.000000 0.500000
vt 0.250000 0.000000
vt 0.000000 0.500000
vt 0.250000 1.000000
vt 0.750000 1.000000
vt 1.000000 0.500000
vt 0.750000 0.000000
vt 0.250000 0.000000
vt 0.750000 0.000000
vt 1.000000 0.500000
vt 0.750000 1.000000
vt 0.250000 1.000000
vt 0.000000 0.500000
vn -0.864898 -0.501615 -0.018287
vn -0.864897 -0.501615 -0.018287
vn -0.864897 -0.501615 -0.018287
vn -0.864898 -0.501615 -0.018287
vn -0.864897 -0.501615 -0.018287
vn -0.864898 -0.501615 -0.018287
vn 0.864914 0.501587 0.018296
vn 0.864914 0.501587 0.018296
vn 0.864914 0.501587 0.018296
vn 0.864914 0.501587 0.018296
vn 0.864914 0.501587 0.018296
vn 0.864914 0.501587 0.018296
vn 0.073388 -0.129085 -0.988914
vn 0.073388 -0.129085 -0.988914
vn 0.073388 -0.129085 -0.988914
vn 0.073388 -0.129085 -0.988914
vn -0.421255 0.753024 -0.505469
vn -0.421255 0.753024 -0.505469
vn -0.421255 0.753024 -0.505469
vn -0.421255 0.753024 -0.505469
vn -0.430561 0.767726 0.474566
vn -0.430561 0.767726 0.474566
vn -0.430561 0.767726 0.474566
vn -0.430561 0.767726 0.474566
vn 0.026481 -0.049223 0.998437
vn 0.026481 -0.049223 0.998437
vn 0.026481 -0.049223 0.998437
vn 0.026481 -0.049223 0.998437
vn 0.403259 -0.721010 0.563495
vn 0.403259 -0.721010 0.563495
vn 0.403259 -0.721010 0.563495
vn 0.403259 -0.721010 0.563495
vn 0.420836 -0.750295 -0.509857
vn 0.420836 -0.750295 -0.509857
vn 0.420836 -0.750295 -0.509857
vn 0.420836 -0.750295 -0.509857
vn 0.771687 0.590914 0.235204
vn 0.771687 0.590914 0.235204
vn 0.771687 0.590914 0.235204
vn 0.771687 0.590914 0.235204
vn -0.864914 -0.501587 -0.018297
vn -0.864914 -0.501587 -0.018297
vn -0.864914 -0.501587 -0.018297
vn -0.864914 -0.501587 -0.018297
vn -0.090157 0.119396 0.988745
vn -0.090157 0.119396 0.988745
vn -0.090157 0.119396 0.988745
vn -0.090157 0.119396 0.988745
vn 0.424810 -0.750965 0.505556
vn 0.424810 -0.750965 0.505556
vn 0.424810 -0.750965 0.505556
vn 0.424810 -0.750965 0.505556
vn 0.449143 -0.757181 -0.474286
vn 0.449143 -0.757181 -0.474286
vn 0.449143 -0.757181 -0.474286
vn 0.449143 -0.757181 -0.474286
vn -0.012228 0.057500 -0.998271
vn -0.012228 0.057500 -0.998271
vn -0.012228 0.057500 -0.998271
vn -0.012228 0.057500 -0.998271
vn -0.405471 0.719734 -0.563539
vn -0.405471 0.719734 -0.563539
vn -0.405471 0.719734 -0.563539
vn -0.405471 0.719734 -0.563539
vn -0.439690 0.739594 0.509582
vn -0.439690 0.739594 0.509582
vn -0.439690 0.739594 0.509582
vn -0.439690 0.739594 0.509582
vn 0.963019 0.267828 0.029371
vn 0.963019 0.267828 0.029371
vn 0.963019 0.267828 0.029371
vn 0.963019 0.267828 0.029371
vn -0.864914 -0.501586 -0.018297
vn -0.864914 -0.501587 -0.018297
vn -0.864914 -0.501587 -0.018297
vn -0.864914 -0.501586 -0.018297
s off
g quartzGroup1 quartz6
usemtl initialShadingGroup
f 109/157/303 114/162/304 113/161/305 112/160/306 111/159/307 110/158/308
f 116/151/309 120/152/310 119/153/311 118/154/312 117/155/313 115/156/314
f 116/145/315 109/157/316 110/158/317 120/146/318
f 120/146/319 110/158/320 111/159/321 119/147/322
f 119/147/323 111/159/324 112/160/325 118/148/326
f 118/148/327 112/160/328 113/161/329 117/149/330
f 117/149/331 113/161/332 114/162/333 115/150/334
f 115/150/335 114/162/336 109/157/337 116/145/338
f 107/167/339 104/164/340 105/165/341 106/166/342
f 97/169/343 102/170/344 101/171/345 98/174/346
f 97/175/347 98/176/348 104/164/349 103/163/350
f 98/176/351 99/177/352 105/165/353 104/164/354
f 99/177/355 100/178/356 106/166/357 105/165/358
f 100/178/359 101/179/360 107/167/361 106/166/362
f 101/179/363 102/180/364 108/168/365 107/167/366
f 102/180/367 97/175/368 103/163/369 108/168/370
f 103/163/371 104/164/372 107/167/373 108/168/374
f 98/174/375 101/171/376 100/172/377 99/173/378
g default
v 7.122878 -0.161487 3.961108
v 7.318916 0.075226 4.062846
v 7.428148 0.253395 3.633772
v 7.334707 0.159461 3.386933
v 7.137469 -0.083648 3.336523
v 7.031388 -0.245011 3.630744
v 4.930025 1.583140 4.127302
v 5.084915 1.852591 4.232158
v 5.189604 2.034374 3.803429
v 5.062128 1.967518 3.559169
v 4.918983 1.681373 3.504659
v 4.797525 1.532244 3.800046
v 5.118507 1.829923 3.890829
v 5.120468 1.832290 3.891847
v 5.121560 1.834072 3.887556
v 5.120626 1.833132 3.885087
v 5.118653 1.830701 3.884583
v 5.117592 1.829088 3.887525
v 6.901449 0.251771 3.723609
v 6.902364 0.252606 3.726913
v 6.902510 0.253385 3.720667
v 6.904482 0.255816 3.721171
v 6.905417 0.256755 3.723640
v 6.904324 0.254974 3.727930
vt 0.250000 0.000000
vt 0.750000 0.000000
vt 1.000000 0.500000
vt 0.750000 1.000000
vt 0.250000 1.000000
vt 0.000000 0.500000
vt 0.250000 0.000000
vt 0.750000 0.000000
vt 1.000000 0.500000
vt 0.750000 1.000000
vt 0.250000 1.000000
vt 0.000000 0.500000
vt 0.250000 0.000000
vt 0.750000 0.000000
vt 1.000000 0.500000
vt 0.750000 1.000000
vt 0.250000 1.000000
vt 0.000000 0.500000
vt 0.250000 0.000000
vt 0.750000 0.000000
vt 1.000000 0.500000
vt 0.750000 1.000000
vt 0.250000 1.000000
vt 0.000000 0.500000
vt 0.250000 0.000000
vt 0.750000 0.000000
vt 1.000000 0.500000
vt 0.750000 1.000000
vt 0.250000 1.000000
vt 0.000000 0.500000
vn 0.781175 -0.621497 -0.059217
vn 0.781175 -0.621497 -0.059217
vn 0.781175 -0.621497 -0.059217
vn 0.781175 -0.621497 -0.059217
vn 0.781175 -0.621497 -0.059217
vn 0.781175 -0.621497 -0.059217
vn -0.781176 0.621497 0.059204
vn -0.781176 0.621497 0.059204
vn -0.781176 0.621497 0.059204
vn -0.781176 0.621497 0.059204
vn -0.781176 0.621497 0.059204
vn -0.781176 0.621497 0.059204
vn 0.157672 0.276827 -0.947896
vn 0.157672 0.276827 -0.947896
vn 0.157672 0.276827 -0.947896
vn 0.157672 0.276827 -0.947896
vn -0.619812 -0.656256 -0.430304
vn -0.619812 -0.656256 -0.430304
vn -0.619812 -0.656256 -0.430304
vn -0.619812 -0.656256 -0.430304
vn -0.559535 -0.681774 0.471280
vn -0.559535 -0.681774 0.471280
vn -0.559535 -0.681774 0.471280
vn -0.559535 -0.681774 0.471280
vn -0.052477 -0.161757 0.985434
vn -0.052477 -0.161757 0.985434
vn -0.052477 -0.161757 0.985434
vn -0.052477 -0.161757 0.985434
vn 0.584088 0.604248 0.541965
vn 0.584088 0.604248 0.541965
vn 0.584088 0.604248 0.541965
vn 0.584088 0.604248 0.541965
vn 0.602735 0.717867 -0.348393
vn 0.602735 0.717867 -0.348393
vn 0.602735 0.717867 -0.348393
vn 0.602735 0.717867 -0.348393
vn -0.819342 0.559877 0.123354
vn -0.819342 0.559877 0.123354
vn -0.819342 0.559877 0.123354
vn -0.819342 0.559877 0.123354
vn -0.152017 -0.281331 0.947493
vn -0.152017 -0.281331 0.947493
vn -0.152017 -0.281331 0.947493
vn -0.152017 -0.281331 0.947493
vn 0.580849 0.688749 0.433867
vn 0.580849 0.688749 0.433866
vn 0.580849 0.688749 0.433867
vn 0.580849 0.688749 0.433867
vn 0.527749 0.708035 -0.469219
vn 0.527749 0.708035 -0.469219
vn 0.527749 0.708035 -0.469219
vn 0.527749 0.708035 -0.469219
vn 0.053413 0.161016 -0.985505
vn 0.053413 0.161016 -0.985505
vn 0.053413 0.161016 -0.985505
vn 0.053413 0.161016 -0.985505
vn -0.546727 -0.635226 -0.545506
vn -0.546727 -0.635226 -0.545506
vn -0.546727 -0.635226 -0.545506
vn -0.546727 -0.635226 -0.545506
vn -0.567916 -0.746792 0.346084
vn -0.567916 -0.746791 0.346084
vn -0.567916 -0.746791 0.346084
vn -0.567916 -0.746792 0.346084
vn -0.823788 0.557542 0.102571
vn -0.823788 0.557542 0.102571
vn -0.823788 0.557542 0.102571
vn -0.823788 0.557542 0.102571
s off
g quartzGroup1 quartz11
usemtl initialShadingGroup
f 133/193/379 138/198/380 137/197/381 136/196/382 135/195/383 134/194/384
f 140/187/385 144/188/386 143/189/387 142/190/388 141/191/389 139/192/390
f 140/181/391 133/193/392 134/194/393 144/182/394
f 144/182/395 134/194/396 135/195/397 143/183/398
f 143/183/399 135/195/400 136/196/401 142/184/402
f 142/184/403 136/196/404 137/197/405 141/185/406
f 141/185/407 137/197/408 138/198/409 139/186/410
f 139/186/411 138/198/412 133/193/413 140/181/414
f 127/199/415 128/200/416 129/201/417 130/202/418
f 121/205/419 122/206/420 128/200/421 127/199/422
f 122/206/423 123/207/424 129/201/425 128/200/426
f 123/207/427 124/208/428 130/202/429 129/201/430
f 124/208/431 125/209/432 131/203/433 130/202/434
f 125/209/435 126/210/436 132/204/437 131/203/438
f 126/210/439 121/205/440 127/199/441 132/204/442
f 127/199/443 130/202/444 131/203/445 132/204/446
g default
v 7.057078 0.613407 3.996274
v 7.387741 0.370896 4.058822
v 7.559061 0.033047 3.833769
v 7.399629 -0.059089 3.549957
v 7.068452 0.201985 3.509377
v 6.900364 0.422966 3.596122
v 8.126106 1.815487 3.005507
v 8.442497 1.556927 3.081282
v 8.627339 1.234283 2.843697
v 8.464513 1.138331 2.563030
v 8.061240 1.318336 2.589268
v 8.015973 1.677426 2.562183
v 8.253795 1.483997 2.975179
v 8.257102 1.481572 2.975805
v 8.258815 1.478193 2.973554
v 8.257220 1.477272 2.970716
v 8.253909 1.479883 2.970311
v 8.252228 1.482092 2.971178
v 7.440627 0.520999 3.571572
v 7.442194 0.522903 3.575573
v 7.442308 0.518789 3.570704
v 7.445620 0.516178 3.571110
v 7.447214 0.517100 3.573948
v 7.445501 0.520478 3.576199
vt 0.250000 0.000000
vt 0.750000 0.000000
vt 1.000000 0.500000
vt 0.750000 1.000000
vt 0.250000 1.000000
vt 0.000000 0.500000
vt 0.250000 0.000000
vt 0.750000 0.000000
vt 1.000000 0.500000
vt 0.750000 1.000000
vt 0.250000 1.000000
vt 0.000000 0.500000
vt 0.250000 0.000000
vt 0.750000 0.000000
vt 1.000000 0.500000
vt 0.750000 1.000000
vt 0.250000 1.000000
vt 0.000000 0.500000
vt 0.250000 0.000000
vt 0.750000 0.000000
vt 1.000000 0.500000
vt 0.750000 1.000000
vt 0.250000 1.000000
vt 0.000000 0.500000
vt 0.250000 0.000000
vt 0.000000 0.500000
vt 0.250000 1.000000
vt 0.750000 1.000000
vt 1.000000 0.500000
vt 0.750000 0.000000
vt 0.250000 0.000000
vt 0.750000 0.000000
vt 1.000000 0.500000
vt 0.750000 1.000000
vt 0.250000 1.000000
vt 0.000000 0.500000
vn -0.565827 -0.636274 0.524399
vn -0.565827 -0.636274 0.524399
vn -0.565827 -0.636274 0.524399
vn -0.565827 -0.636275 0.524399
vn -0.565827 -0.636274 0.524399
vn -0.565827 -0.636274 0.524399
vn 0.565838 0.636259 -0.524407
vn 0.565838 0.636259 -0.524407
vn 0.565837 0.636259 -0.524407
vn 0.565837 0.636259 -0.524407
vn 0.565837 0.636259 -0.524407
vn 0.565837 0.636259 -0.524407
vn -0.147849 -0.431175 -0.890072
vn -0.147849 -0.431175 -0.890072
vn -0.147849 -0.431175 -0.890072
vn -0.147849 -0.431175 -0.890072
vn -0.684778 0.130360 -0.716997
vn -0.684778 0.130360 -0.716997
vn -0.684778 0.130360 -0.716997
vn -0.684778 0.130360 -0.716997
vn -0.699301 0.694991 0.167226
vn -0.699301 0.694991 0.167226
vn -0.699301 0.694991 0.167226
vn -0.699301 0.694991 0.167226
vn 0.199408 0.392511 0.897871
vn 0.199408 0.392511 0.897871
vn 0.199408 0.392511 0.897871
vn 0.199408 0.392511 0.897871
vn 0.533764 0.075404 0.842265
vn 0.533764 0.075404 0.842265
vn 0.533764 0.075404 0.842265
vn 0.533764 0.075404 0.842265
vn 0.765871 -0.642965 0.006034
vn 0.765872 -0.642965 0.006034
vn 0.765872 -0.642965 0.006034
vn 0.765872 -0.642965 0.006034
vn 0.576784 0.478858 -0.661828
vn 0.576784 0.478858 -0.661827
vn 0.576784 0.478858 -0.661828
vn 0.576784 0.478858 -0.661828
vn -0.565834 -0.636258 0.524411
vn -0.565834 -0.636258 0.524411
vn -0.565834 -0.636258 0.524411
vn -0.565834 -0.636258 0.524411
vn 0.210651 0.503359 0.838007
vn 0.210651 0.503359 0.838007
vn 0.210651 0.503359 0.838007
vn 0.210651 0.503359 0.838007
vn 0.727083 -0.085110 0.681254
vn 0.727083 -0.085110 0.681254
vn 0.727083 -0.085110 0.681254
vn 0.727083 -0.085110 0.681254
vn 0.676574 -0.721809 -0.145741
vn 0.676574 -0.721809 -0.145741
vn 0.676574 -0.721808 -0.145741
vn 0.676574 -0.721809 -0.145741
vn -0.262219 -0.464137 -0.846061
vn -0.262219 -0.464137 -0.846061
vn -0.262219 -0.464137 -0.846060
vn -0.262219 -0.464137 -0.846060
vn -0.588137 -0.134296 -0.797533
vn -0.588137 -0.134296 -0.797533
vn -0.588137 -0.134296 -0.797533
vn -0.588137 -0.134296 -0.797533
vn -0.754107 0.656528 -0.017120
vn -0.754107 0.656528 -0.017120
vn -0.754107 0.656528 -0.017120
vn -0.754107 0.656528 -0.017120
vn 0.585585 0.642583 -0.494143
vn 0.585585 0.642583 -0.494143
vn 0.585585 0.642583 -0.494143
vn 0.585585 0.642583 -0.494143
vn -0.565834 -0.636258 0.524411
vn -0.565834 -0.636258 0.524411
vn -0.565834 -0.636258 0.524411
vn -0.565834 -0.636258 0.524411
s off
g quartzGroup1 quartz1
usemtl initialShadingGroup
f 157/223/447 162/228/448 161/227/449 160/226/450 159/225/451 158/224/452
f 164/217/453 168/218/454 167/219/455 166/220/456 165/221/457 163/222/458
f 164/211/459 157/223/460 158/224/461 168/212/462
f 168/212/463 158/224/464 159/225/465 167/213/466
f 167/213/467 159/225/468 160/226/469 166/214/470
f 166/214/471 160/226/472 161/227/473 165/215/474
f 165/215/475 161/227/476 162/228/477 163/216/478
f 163/216/479 162/228/480 157/223/481 164/211/482
f 151/229/483 154/232/484 155/233/485 156/234/486
f 145/235/487 150/236/488 149/237/489 146/240/490
f 145/241/491 146/242/492 152/230/493 151/229/494
f 146/242/495 147/243/496 153/231/497 152/230/498
f 147/243/499 148/244/500 154/232/501 153/231/502
f 148/244/503 149/245/504 155/233/505 154/232/506
f 149/245/507 150/246/508 156/234/509 155/233/510
f 150/246/511 145/241/512 151/229/513 156/234/514
f 151/229/515 152/230/516 153/231/517 154/232/518
f 146/240/519 149/237/520 148/238/521 147/239/522
g default
v 7.054566 0.414969 3.675063
v 7.398761 0.571513 4.015847
v 7.573926 -0.002963 4.054903
v 7.403639 -0.466251 3.807044
v 7.058093 -0.335441 3.524077
v 6.883778 0.058249 3.448646
v 9.251813 0.918343 1.224595
v 9.680120 1.094157 1.471573
v 9.875956 0.524416 1.487577
v 9.721545 0.064765 1.222011
v 9.293557 0.176688 1.030989
v 9.059644 0.556725 1.022022
v 9.427213 0.653834 1.325325
v 9.430655 0.655400 1.328733
v 9.432407 0.649655 1.329123
v 9.430704 0.645022 1.326644
v 9.427249 0.646330 1.323815
v 9.425506 0.650267 1.323061
v 7.433972 0.129361 3.526634
v 7.435680 0.132928 3.528898
v 7.435715 0.125424 3.527388
v 7.439171 0.124116 3.530218
v 7.440874 0.128749 3.532696
v 7.439122 0.134493 3.532306
vt 0.250000 0.000000
vt 0.750000 0.000000
vt 1.000000 0.500000
vt 0.750000 1.000000
vt 0.250000 1.000000
vt 0.000000 0.500000
vt 0.250000 0.000000
vt 0.750000 0.000000
vt 1.000000 0.500000
vt 0.750000 1.000000
vt 0.250000 1.000000
vt 0.000000 0.500000
vt 0.250000 0.000000
vt 0.750000 0.000000
vt 1.000000 0.500000
vt 0.750000 1.000000
vt 0.250000 1.000000
vt 0.000000 0.500000
vt 0.250000 0.000000
vt 0.750000 0.000000
vt 1.000000 0.500000
vt 0.750000 1.000000
vt 0.250000 1.000000
vt 0.000000 0.500000
vt 0.250000 0.000000
vt 0.000000 0.500000
vt 0.250000 1.000000
vt 0.750000 1.000000
vt 1.000000 0.500000
vt 0.750000 0.000000
vt 0.250000 0.000000
vt 0.750000 0.000000
vt 1.000000 0.500000
vt 0.750000 1.000000
vt 0.250000 1.000000
vt 0.000000 0.500000
vn -0.659908 -0.151190 0.735977
vn -0.659908 -0.151190 0.735977
vn -0.659908 -0.151190 0.735977
vn -0.659908 -0.151190 0.735977
vn -0.659908 -0.151190 0.735977
vn -0.659908 -0.151190 0.735977
vn 0.659920 0.151183 -0.735968
vn 0.659920 0.151183 -0.735968
vn 0.659920 0.151183 -0.735968
vn 0.659920 0.151183 -0.735968
vn 0.659920 0.151183 -0.735968
vn 0.659920 0.151183 -0.735968
vn 0.340418 -0.936303 0.086321
vn 0.340418 -0.936303 0.086321
vn 0.340418 -0.936303 0.086321
vn 0.340418 -0.936303 0.086321
vn -0.686425 -0.255596 -0.680802
vn -0.686425 -0.255596 -0.680802
vn -0.686425 -0.255596 -0.680802
vn -0.686425 -0.255596 -0.680802
vn -0.690607 0.521783 -0.500803
vn -0.690607 0.521783 -0.500803
vn -0.690607 0.521783 -0.500803
vn -0.690607 0.521783 -0.500803
vn 0.100362 0.944143 0.313883
vn 0.100362 0.944142 0.313883
vn 0.100362 0.944142 0.313883
vn 0.100362 0.944143 0.313883
vn 0.628445 0.405459 0.663822
vn 0.628445 0.405459 0.663822
vn 0.628445 0.405459 0.663822
vn 0.628445 0.405459 0.663822
vn 0.657942 -0.602114 0.452296
vn 0.657942 -0.602114 0.452296
vn 0.657942 -0.602114 0.452296
vn 0.657942 -0.602114 0.452296
vn 0.415435 0.251575 -0.874142
vn 0.415435 0.251575 -0.874142
vn 0.415435 0.251575 -0.874142
vn 0.415435 0.251575 -0.874142
vn -0.659918 -0.151183 0.735970
vn -0.659918 -0.151183 0.735970
vn -0.659918 -0.151183 0.735970
vn -0.659918 -0.151183 0.735970
vn -0.659918 -0.151183 0.735970
vn -0.659918 -0.151183 0.735970
vn -0.327551 0.939449 -0.100722
vn -0.327551 0.939449 -0.100722
vn -0.327551 0.939450 -0.100722
vn -0.327551 0.939450 -0.100722
vn 0.692678 0.257022 0.673897
vn 0.692678 0.257022 0.673897
vn 0.692678 0.257022 0.673897
vn 0.692678 0.257022 0.673897
vn 0.685167 -0.523045 0.506921
vn 0.685167 -0.523045 0.506921
vn 0.685167 -0.523045 0.506921
vn 0.685167 -0.523045 0.506921
vn -0.114943 -0.947702 -0.297741
vn -0.114943 -0.947702 -0.297741
vn -0.114943 -0.947702 -0.297741
vn -0.114943 -0.947702 -0.297741
vn -0.636770 -0.407376 -0.654652
vn -0.636770 -0.407376 -0.654652
vn -0.636770 -0.407376 -0.654652
vn -0.636770 -0.407376 -0.654652
vn -0.651199 0.603684 -0.459898
vn -0.651199 0.603684 -0.459898
vn -0.651199 0.603684 -0.459898
vn -0.651199 0.603684 -0.459898
vn 0.516396 0.221337 -0.827251
vn 0.516396 0.221337 -0.827252
vn 0.516396 0.221337 -0.827252
vn 0.516396 0.221337 -0.827251
s off
g quartzGroup1 quartz3
usemtl initialShadingGroup
f 181/259/523 186/264/524 185/263/525 184/262/526 183/261/527 182/260/528
f 188/253/529 192/254/530 191/255/531 190/256/532 189/257/533 187/258/534
f 188/247/535 181/259/536 182/260/537 192/248/538
f 192/248/539 182/260/540 183/261/541 191/249/542
f 191/249/543 183/261/544 184/262/545 190/250/546
f 190/250/547 184/262/548 185/263/549 189/251/550
f 189/251/551 185/263/552 186/264/553 187/252/554
f 187/252/555 186/264/556 181/259/557 188/247/558
f 175/265/559 176/266/560 179/269/561 180/270/562
f 169/271/563 174/272/564 173/273/565 172/274/566 171/275/567 170/276/568
f 169/277/569 170/278/570 176/266/571 175/265/572
f 170/278/573 171/279/574 177/267/575 176/266/576
f 171/279/577 172/280/578 178/268/579 177/267/580
f 172/280/581 173/281/582 179/269/583 178/268/584
f 173/281/585 174/282/586 180/270/587 179/269/588
f 174/282/589 169/277/590 175/265/591 180/270/592
f 179/269/593 176/266/594 177/267/595 178/268/596
g default
v 7.017977 0.234562 4.136696
v 7.419952 -0.075278 4.213314
v 7.631847 -0.290149 3.784685
v 7.436265 -0.164935 3.515006
v 7.037459 0.127495 3.302792
v 6.826377 0.337893 3.696581
v 8.059251 1.549729 3.992165
v 8.571293 1.378909 4.053505
v 8.720496 1.084855 3.633577
v 8.503154 1.182585 3.366920
v 8.229436 1.633007 3.137342
v 7.939523 1.743837 3.542074
v 8.310767 1.335167 3.579378
v 8.314786 1.332068 3.580144
v 8.316905 1.329919 3.575858
v 8.314950 1.331171 3.573161
v 8.310961 1.334096 3.571039
v 8.308851 1.336200 3.574977
v 7.400662 0.251495 3.733012
v 7.402578 0.250462 3.737413
v 7.402773 0.249391 3.729074
v 7.406761 0.246467 3.731196
v 7.408717 0.245215 3.733893
v 7.406598 0.247364 3.738179
vt 0.250000 0.000000
vt 0.750000 0.000000
vt 1.000000 0.500000
vt 0.750000 1.000000
vt 0.250000 1.000000
vt 0.000000 0.500000
vt 0.250000 0.000000
vt 0.750000 0.000000
vt 1.000000 0.500000
vt 0.750000 1.000000
vt 0.250000 1.000000
vt 0.000000 0.500000
vt 0.250000 0.000000
vt 0.750000 0.000000
vt 1.000000 0.500000
vt 0.750000 1.000000
vt 0.250000 1.000000
vt 0.000000 0.500000
vt 0.250000 0.000000
vt 0.750000 0.000000
vt 1.000000 0.500000
vt 0.750000 1.000000
vt 0.250000 1.000000
vt 0.000000 0.500000
vt 0.250000 0.000000
vt 0.000000 0.500000
vt 0.250000 1.000000
vt 0.750000 1.000000
vt 1.000000 0.500000
vt 0.750000 0.000000
vt 0.250000 0.000000
vt 0.750000 0.000000
vt 1.000000 0.500000
vt 0.750000 1.000000
vt 0.250000 1.000000
vt 0.000000 0.500000
vn -0.618435 -0.781133 0.085842
vn -0.618435 -0.781133 0.085842
vn -0.618435 -0.781133 0.085842
vn -0.618435 -0.781133 0.085842
vn -0.618435 -0.781133 0.085842
vn -0.618435 -0.781133 0.085842
vn 0.618447 0.781124 -0.085844
vn 0.618447 0.781124 -0.085844
vn 0.618447 0.781124 -0.085844
vn 0.618447 0.781124 -0.085844
vn 0.618447 0.781124 -0.085844
vn 0.618447 0.781124 -0.085844
vn 0.046739 -0.182224 -0.982146
vn 0.046739 -0.182223 -0.982146
vn 0.046739 -0.182223 -0.982146
vn 0.046739 -0.182224 -0.982146
vn -0.669015 0.477112 -0.569898
vn -0.669015 0.477112 -0.569898
vn -0.669015 0.477112 -0.569898
vn -0.669015 0.477112 -0.569898
vn -0.538353 0.544461 0.643225
vn -0.538353 0.544461 0.643225
vn -0.538353 0.544461 0.643225
vn -0.538353 0.544461 0.643225
vn -0.240185 0.333896 0.911496
vn -0.240185 0.333896 0.911496
vn -0.240185 0.333896 0.911496
vn -0.240185 0.333896 0.911496
vn 0.655339 -0.461585 0.597888
vn 0.655339 -0.461585 0.597888
vn 0.655339 -0.461585 0.597888
vn 0.655339 -0.461585 0.597888
vn 0.659694 -0.615225 -0.431626
vn 0.659694 -0.615225 -0.431626
vn 0.659694 -0.615225 -0.431626
vn 0.659694 -0.615225 -0.431626
vn 0.819330 0.524587 -0.231316
vn 0.819330 0.524587 -0.231316
vn 0.819330 0.524587 -0.231316
vn 0.819330 0.524587 -0.231316
vn -0.618448 -0.781123 0.085842
vn -0.618448 -0.781123 0.085842
vn -0.618448 -0.781123 0.085842
vn -0.618448 -0.781123 0.085842
vn -0.064781 0.159544 0.985063
vn -0.064781 0.159544 0.985063
vn -0.064781 0.159544 0.985063
vn -0.064781 0.159544 0.985063
vn 0.673889 -0.470989 0.569248
vn 0.673889 -0.470989 0.569248
vn 0.673889 -0.470989 0.569248
vn 0.673889 -0.470989 0.569248
vn 0.561701 -0.515810 -0.646864
vn 0.561701 -0.515810 -0.646864
vn 0.561701 -0.515810 -0.646864
vn 0.561701 -0.515810 -0.646864
vn 0.261386 -0.307499 -0.914944
vn 0.261386 -0.307499 -0.914944
vn 0.261386 -0.307499 -0.914944
vn 0.261386 -0.307499 -0.914944
vn -0.659422 0.456447 -0.597343
vn -0.659422 0.456447 -0.597343
vn -0.659422 0.456447 -0.597344
vn -0.659422 0.456447 -0.597344
vn -0.682094 0.587843 0.434959
vn -0.682094 0.587842 0.434959
vn -0.682094 0.587843 0.434959
vn -0.682094 0.587843 0.434959
vn 0.389208 0.906113 0.165762
vn 0.389208 0.906113 0.165762
vn 0.389208 0.906113 0.165762
vn 0.389208 0.906113 0.165762
vn -0.618448 -0.781123 0.085842
vn -0.618448 -0.781123 0.085842
vn -0.618448 -0.781123 0.085842
vn -0.618448 -0.781123 0.085842
s off
g quartzGroup1 quartz2
usemtl initialShadingGroup
f 205/295/597 210/300/598 209/299/599 208/298/600 207/297/601 206/296/602
f 212/289/603 216/290/604 215/291/605 214/292/606 213/293/607 211/294/608
f 212/283/609 205/295/610 206/296/611 216/284/612
f 216/284/613 206/296/614 207/297/615 215/285/616
f 215/285/617 207/297/618 208/298/619 214/286/620
f 214/286/621 208/298/622 209/299/623 213/287/624
f 213/287/625 209/299/626 210/300/627 211/288/628
f 211/288/629 210/300/630 205/295/631 212/283/632
f 203/305/633 200/302/634 201/303/635 202/304/636
f 193/307/637 198/308/638 197/309/639 194/312/640
f 193/313/641 194/314/642 200/302/643 199/301/644
f 194/314/645 195/315/646 201/303/647 200/302/648
f 195/315/649 196/316/650 202/304/651 201/303/652
f 196/316/653 197/317/654 203/305/655 202/304/656
f 197/317/657 198/318/658 204/306/659 203/305/660
f 198/318/661 193/313/662 199/301/663 204/306/664
f 199/301/665 200/302/666 203/305/667 204/306/668
f 194/312/669 197/309/670 196/310/671 195/311/672
g default
v 6.971739 0.357551 4.041644
v 7.473086 0.405088 4.013191
v 7.731983 -0.048463 3.646963
v 7.482988 -0.169648 3.589351
v 6.982053 -0.241124 3.600150
v 6.727435 -0.035934 3.783223
v 6.549675 2.811317 0.587646
v 7.070848 2.743590 0.715956
v 7.321510 2.337920 0.284608
v 7.078678 2.180903 0.392509
v 6.582186 2.083592 0.438445
v 6.328634 2.282586 0.513164
v 6.943745 2.595513 0.719203
v 6.948758 2.595988 0.718919
v 6.951347 2.591453 0.715256
v 6.948857 2.590241 0.714680
v 6.943848 2.589526 0.714788
v 6.941302 2.591578 0.716619
v 7.196626 0.231623 3.601315
v 7.199069 0.235558 3.603899
v 7.199172 0.229571 3.599484
v 7.204182 0.230286 3.599376
v 7.206672 0.231498 3.599952
v 7.204083 0.236033 3.603614
vt 0.250000 0.000000
vt 0.750000 0.000000
vt 1.000000 0.500000
vt 0.750000 1.000000
vt 0.250000 1.000000
vt 0.000000 0.500000
vt 0.250000 0.000000
vt 0.750000 0.000000
vt 1.000000 0.500000
vt 0.750000 1.000000
vt 0.250000 1.000000
vt 0.000000 0.500000
vt 0.250000 0.000000
vt 0.750000 0.000000
vt 1.000000 0.500000
vt 0.750000 1.000000
vt 0.250000 1.000000
vt 0.000000 0.500000
vt 0.250000 0.000000
vt 0.750000 0.000000
vt 1.000000 0.500000
vt 0.750000 1.000000
vt 0.250000 1.000000
vt 0.000000 0.500000
vt 0.250000 0.000000
vt 0.750000 0.000000
vt 1.000000 0.500000
vt 0.750000 1.000000
vt 0.250000 1.000000
vt 0.000000 0.500000
vn 0.101379 -0.589322 0.801512
vn 0.101379 -0.589322 0.801512
vn 0.101379 -0.589322 0.801512
vn 0.101379 -0.589322 0.801512
vn 0.101379 -0.589322 0.801512
vn 0.101379 -0.589322 0.801512
vn -0.101367 0.589330 -0.801508
vn -0.101367 0.589330 -0.801508
vn -0.101367 0.589330 -0.801508
vn -0.101367 0.589330 -0.801508
vn -0.101367 0.589330 -0.801508
vn -0.101367 0.589330 -0.801508
vn 0.037165 -0.771842 -0.634728
vn 0.037165 -0.771842 -0.634728
vn 0.037165 -0.771842 -0.634728
vn 0.037165 -0.771842 -0.634728
vn -0.912282 -0.352857 -0.207925
vn -0.912282 -0.352857 -0.207925
vn -0.912282 -0.352857 -0.207925
vn -0.912282 -0.352857 -0.207925
vn -0.460115 0.666803 0.586233
vn -0.460115 0.666803 0.586233
vn -0.460115 0.666803 0.586233
vn -0.460115 0.666803 0.586232
vn -0.095652 0.766275 0.635353
vn -0.095652 0.766275 0.635353
vn -0.095652 0.766275 0.635353
vn -0.095652 0.766275 0.635353
vn 0.731451 0.558080 0.391824
vn 0.731451 0.558080 0.391824
vn 0.731451 0.558080 0.391824
vn 0.731451 0.558080 0.391824
vn 0.882322 -0.322985 -0.342330
vn 0.882322 -0.322985 -0.342330
vn 0.882322 -0.322985 -0.342330
vn 0.882322 -0.322985 -0.342330
vn -0.054309 0.474027 -0.878834
vn -0.054309 0.474027 -0.878834
vn -0.054309 0.474027 -0.878834
vn -0.054309 0.474027 -0.878834
vn -0.040761 0.812413 0.581656
vn -0.040760 0.812413 0.581656
vn -0.040760 0.812413 0.581656
vn -0.040761 0.812413 0.581656
vn 0.907668 0.386541 0.163477
vn 0.907668 0.386541 0.163477
vn 0.907668 0.386541 0.163477
vn 0.907668 0.386541 0.163477
vn 0.357226 -0.735580 -0.575597
vn 0.357226 -0.735580 -0.575597
vn 0.357226 -0.735580 -0.575597
vn 0.357226 -0.735580 -0.575597
vn 0.100617 -0.795455 -0.597602
vn 0.100617 -0.795455 -0.597602
vn 0.100617 -0.795455 -0.597602
vn 0.100617 -0.795455 -0.597602
vn -0.685957 -0.627729 -0.367993
vn -0.685957 -0.627729 -0.367993
vn -0.685957 -0.627729 -0.367993
vn -0.685957 -0.627729 -0.367993
vn -0.883702 0.323967 0.337811
vn -0.883702 0.323967 0.337811
vn -0.883702 0.323967 0.337811
vn -0.883702 0.323967 0.337811
vn -0.170825 -0.096534 -0.980561
vn -0.170825 -0.096534 -0.980561
vn -0.170825 -0.096534 -0.980561
vn -0.170825 -0.096534 -0.980561
s off
g quartzGroup1 quartz5
usemtl initialShadingGroup
f 229/331/673 234/336/674 233/335/675 232/334/676 231/333/677 230/332/678
f 236/325/679 240/326/680 239/327/681 238/328/682 237/329/683 235/330/684
f 236/319/685 229/331/686 230/332/687 240/320/688
f 240/320/689 230/332/690 231/333/691 239/321/692
f 239/321/693 231/333/694 232/334/695 238/322/696
f 238/322/697 232/334/698 233/335/699 237/323/700
f 237/323/701 233/335/702 234/336/703 235/324/704
f 235/324/705 234/336/706 229/331/707 236/319/708
f 223/337/709 224/338/710 225/339/711 228/342/712
f 217/343/713 218/344/714 224/338/715 223/337/716
f 218/344/717 219/345/718 225/339/719 224/338/720
f 219/345/721 220/346/722 226/340/723 225/339/724
f 220/346/725 221/347/726 227/341/727 226/340/728
f 221/347/729 222/348/730 228/342/731 227/341/732
f 222/348/733 217/343/734 223/337/735 228/342/736
f 228/342/737 225/339/738 226/340/739 227/341/740
g default
v 6.943779 -0.120972 4.116908
v 7.263695 -0.418455 4.120178
v 7.436520 -0.168246 3.571075
v 7.282592 0.167474 3.311323
v 6.957631 0.308537 3.523985
v 6.789283 0.197137 3.881468
v 8.681256 1.762977 5.522220
v 8.959146 1.419925 5.491498
v 9.128422 1.666285 4.939525
v 8.846193 1.862890 4.576000
v 8.611458 2.101786 4.861639
v 8.472606 2.022367 5.242979
v 8.619197 1.707141 5.189338
v 8.622396 1.704166 5.189370
v 8.624125 1.706668 5.183879
v 8.622585 1.710026 5.181282
v 8.619336 1.711436 5.183408
v 8.617652 1.710322 5.186983
v 7.328402 0.213927 3.962347
v 7.329947 0.210746 3.964701
v 7.330086 0.215041 3.958772
v 7.333335 0.213631 3.956645
v 7.334875 0.210274 3.959243
v 7.333146 0.207771 3.964734
vt 0.250000 0.000000
vt 0.750000 0.000000
vt 1.000000 0.500000
vt 0.750000 1.000000
vt 0.250000 1.000000
vt 0.000000 0.500000
vt 0.250000 0.000000
vt 0.750000 0.000000
vt 1.000000 0.500000
vt 0.750000 1.000000
vt 0.250000 1.000000
vt 0.000000 0.500000
vt 0.250000 0.000000
vt 0.750000 0.000000
vt 1.000000 0.500000
vt 0.750000 1.000000
vt 0.250000 1.000000
vt 0.000000 0.500000
vt 0.250000 0.000000
vt 0.750000 0.000000
vt 1.000000 0.500000
vt 0.750000 1.000000
vt 0.250000 1.000000
vt 0.000000 0.500000
vt 0.250000 0.000000
vt 0.750000 0.000000
vt 1.000000 0.500000
vt 0.750000 1.000000
vt 0.250000 1.000000
vt 0.000000 0.500000
vn -0.594447 -0.644562 -0.480805
vn -0.594447 -0.644562 -0.480805
vn -0.594447 -0.644562 -0.480805
vn -0.594447 -0.644562 -0.480805
vn -0.594447 -0.644562 -0.480805
vn -0.594447 -0.644562 -0.480805
vn 0.594448 0.644560 0.480805
vn 0.594448 0.644560 0.480805
vn 0.594448 0.644560 0.480805
vn 0.594448 0.644560 0.480805
vn 0.594448 0.644560 0.480805
vn 0.594448 0.644560 0.480805
vn 0.363793 0.381882 -0.849600
vn 0.363793 0.381882 -0.849600
vn 0.363793 0.381882 -0.849600
vn 0.363793 0.381882 -0.849600
vn -0.774353 0.631229 0.043910
vn -0.774353 0.631229 0.043910
vn -0.774353 0.631228 0.043910
vn -0.774353 0.631229 0.043910
vn -0.762275 0.139492 0.632044
vn -0.762274 0.139492 0.632044
vn -0.762275 0.139492 0.632044
vn -0.762275 0.139492 0.632044
vn 0.151731 -0.701007 0.696826
vn 0.151731 -0.701007 0.696826
vn 0.151731 -0.701007 0.696826
vn 0.151731 -0.701007 0.696826
vn 0.704780 -0.700258 0.113680
vn 0.704780 -0.700258 0.113680
vn 0.704780 -0.700258 0.113680
vn 0.704780 -0.700258 0.113680
vn 0.751429 -0.115803 -0.649573
vn 0.751429 -0.115803 -0.649573
vn 0.751429 -0.115803 -0.649573
vn 0.751429 -0.115803 -0.649573
vn 0.590255 0.752782 0.291409
vn 0.590254 0.752782 0.291409
vn 0.590254 0.752782 0.291409
vn 0.590254 0.752782 0.291409
vn -0.332226 -0.347640 0.876796
vn -0.332226 -0.347640 0.876796
vn -0.332226 -0.347640 0.876796
vn -0.332226 -0.347640 0.876796
vn 0.755527 -0.652411 -0.059489
vn 0.755527 -0.652411 -0.059489
vn 0.755527 -0.652411 -0.059489
vn 0.755527 -0.652411 -0.059489
vn 0.728294 -0.178064 -0.661725
vn 0.728294 -0.178064 -0.661725
vn 0.728294 -0.178064 -0.661725
vn 0.728294 -0.178064 -0.661725
vn -0.167600 0.684094 -0.709877
vn -0.167600 0.684094 -0.709877
vn -0.167600 0.684094 -0.709877
vn -0.167600 0.684094 -0.709877
vn -0.691722 0.714780 -0.103006
vn -0.691722 0.714780 -0.103006
vn -0.691723 0.714779 -0.103006
vn -0.691722 0.714779 -0.103006
vn -0.717209 0.154585 0.679496
vn -0.717209 0.154585 0.679496
vn -0.717209 0.154585 0.679496
vn -0.717209 0.154585 0.679496
vn 0.691345 0.669952 0.270567
vn 0.691345 0.669952 0.270567
vn 0.691345 0.669952 0.270567
vn 0.691345 0.669952 0.270567
s off
g quartzGroup1 quartz4
usemtl initialShadingGroup
f 253/361/741 258/366/742 257/365/743 256/364/744 255/363/745 254/362/746
f 260/355/747 264/356/748 263/357/749 262/358/750 261/359/751 259/360/752
f 260/349/753 253/361/754 254/362/755 264/350/756
f 264/350/757 254/362/758 255/363/759 263/351/760
f 263/351/761 255/363/762 256/364/763 262/352/764
f 262/352/765 256/364/766 257/365/767 261/353/768
f 261/353/769 257/365/770 258/366/771 259/354/772
f 259/354/773 258/366/774 253/361/775 260/349/776
f 251/371/777 248/368/778 249/369/779 250/370/780
f 241/373/781 242/374/782 248/368/783 247/367/784
f 242/374/785 243/375/786 249/369/787 248/368/788
f 243/375/789 244/376/790 250/370/791 249/369/792
f 244/376/793 245/377/794 251/371/795 250/370/796
f 245/377/797 246/378/798 252/372/799 251/371/800
f 246/378/801 241/373/802 247/367/803 252/372/804
f 247/367/805 248/368/806 251/371/807 252/372/808
