%YAML 1.1
%TAG !u! tag:unity3d.com,2011:
--- !u!1001 &100100000
Prefab:
  m_ObjectHideFlags: 1
  serializedVersion: 2
  m_Modification:
    m_TransformParent: {fileID: 0}
    m_Modifications: []
    m_RemovedComponents: []
  m_ParentPrefab: {fileID: 0}
  m_RootGameObject: {fileID: 1125266473042790}
  m_IsPrefabParent: 1
--- !u!1 &1125266473042790
GameObject:
  m_ObjectHideFlags: 0
  m_PrefabParentObject: {fileID: 0}
  m_PrefabInternal: {fileID: 100100000}
  serializedVersion: 5
  m_Component:
  - component: {fileID: 4953141560760804}
  - component: {fileID: 33402927002575302}
  - component: {fileID: 23915066694710186}
  - component: {fileID: 135369018120826938}
  - component: {fileID: 65860955702577024}
  - component: {fileID: 114474844924100780}
  - component: {fileID: 114732646156692474}
  m_Layer: 28
  m_Name: SwordPickup
  m_TagString: Untagged
  m_Icon: {fileID: 0}
  m_NavMeshLayer: 0
  m_StaticEditorFlags: 0
  m_IsActive: 1
--- !u!4 &4953141560760804
Transform:
  m_ObjectHideFlags: 1
  m_PrefabParentObject: {fileID: 0}
  m_PrefabInternal: {fileID: 100100000}
  m_GameObject: {fileID: 1125266473042790}
  m_LocalRotation: {x: 0, y: 0, z: 0, w: 1}
  m_LocalPosition: {x: 0, y: 0, z: 0}
  m_LocalScale: {x: 1.0000001, y: 1.0000005, z: 1.0000005}
  m_Children: []
  m_Father: {fileID: 0}
  m_RootOrder: 0
  m_LocalEulerAnglesHint: {x: 0, y: 0, z: 0}
--- !u!23 &23915066694710186
MeshRenderer:
  m_ObjectHideFlags: 1
  m_PrefabParentObject: {fileID: 0}
  m_PrefabInternal: {fileID: 100100000}
  m_GameObject: {fileID: 1125266473042790}
  m_Enabled: 1
  m_CastShadows: 1
  m_ReceiveShadows: 1
  m_MotionVectors: 1
  m_LightProbeUsage: 1
  m_ReflectionProbeUsage: 1
  m_Materials:
  - {fileID: 2100000, guid: a970bb18119a87743b77eaa530ae46f2, type: 2}
  m_StaticBatchInfo:
    firstSubMesh: 0
    subMeshCount: 0
  m_StaticBatchRoot: {fileID: 0}
  m_ProbeAnchor: {fileID: 0}
  m_LightProbeVolumeOverride: {fileID: 0}
  m_ScaleInLightmap: 1
  m_PreserveUVs: 0
  m_IgnoreNormalsForChartDetection: 0
  m_ImportantGI: 0
  m_SelectedEditorRenderState: 3
  m_MinimumChartSize: 4
  m_AutoUVMaxDistance: 0.5
  m_AutoUVMaxAngle: 89
  m_LightmapParameters: {fileID: 0}
  m_SortingLayerID: 0
  m_SortingLayer: 0
  m_SortingOrder: 0
--- !u!33 &33402927002575302
MeshFilter:
  m_ObjectHideFlags: 1
  m_PrefabParentObject: {fileID: 0}
  m_PrefabInternal: {fileID: 100100000}
  m_GameObject: {fileID: 1125266473042790}
  m_Mesh: {fileID: 4300000, guid: cf0aaa778cb2f8847ae042e4f775c62d, type: 3}
--- !u!65 &65860955702577024
BoxCollider:
  m_ObjectHideFlags: 1
  m_PrefabParentObject: {fileID: 0}
  m_PrefabInternal: {fileID: 100100000}
  m_GameObject: {fileID: 1125266473042790}
  m_Material: {fileID: 0}
  m_IsTrigger: 0
  m_Enabled: 1
  serializedVersion: 2
  m_Size: {x: 0.055792022, y: 1.2221724, z: 0.24517043}
  m_Center: {x: -0.0000000010570858, y: -0.3788391, z: 0.00000010408229}
--- !u!114 &114474844924100780
MonoBehaviour:
  m_ObjectHideFlags: 1
  m_PrefabParentObject: {fileID: 0}
  m_PrefabInternal: {fileID: 100100000}
  m_GameObject: {fileID: 1125266473042790}
  m_Enabled: 1
  m_EditorHideFlags: 0
  m_Script: {fileID: 11500000, guid: 3e704e820a055af41b5a98fa3a79f767, type: 3}
  m_Name: 
  m_EditorClassIdentifier: 
  m_TriggerEnableDelay: 4
  m_PickupOnTriggerEnter: 0
  m_RotationSpeed: {x: 0, y: 0, z: 0}
  m_PickupAudioClipSet:
    m_Delay: 0
    m_AudioClips:
    - {fileID: 8300000, guid: dd2a7c92100b2814d893cfcc88f39c9e, type: 3}
  m_PickupMessageText: PICKED UP A SWORD
  m_PickupMessageIcon: {fileID: 0}
  m_ItemPickupSet: []
  m_ItemTypeCounts:
  - m_ItemType: {fileID: 114165112627310990, guid: 5481010ef14c32f4cb7b6661b0c59fb4,
      type: 2}
    m_Count: 1
  m_AlwaysPickup: 0
--- !u!114 &114732646156692474
MonoBehaviour:
  m_ObjectHideFlags: 1
  m_PrefabParentObject: {fileID: 0}
  m_PrefabInternal: {fileID: 100100000}
  m_GameObject: {fileID: 1125266473042790}
  m_Enabled: 1
  m_EditorHideFlags: 0
  m_Script: {fileID: 11500000, guid: bf61090e160b840499607b4e4942727b, type: 3}
  m_Name: 
  m_EditorClassIdentifier: 
  m_InitializeOnEnable: 0
  m_Mass: 1
  m_StartVelocityMultiplier: 1
  m_GravityMagnitude: 9.8
  m_Speed: 1
  m_RotationSpeed: 5
  m_Damping: 0.1
  m_RotationDamping: 0.1
  m_RotateInMoveDirection: 0
  m_SettleThreshold: 0
  m_SidewaysSettleThreshold: 0.129
  m_ImpactLayers:
    serializedVersion: 2
    m_Bits: 268435425
  m_SurfaceImpact: {fileID: 0}
  m_ForceMultiplier: 40
  m_BounceMode: 1
  m_BounceMultiplier: 1
  m_MaxCollisionCount: 5
  m_MaxPositionCount: 150
  m_ActiveAudioClipSet:
    m_Delay: 0
    m_AudioClips: []
--- !u!135 &135369018120826938
SphereCollider:
  m_ObjectHideFlags: 1
  m_PrefabParentObject: {fileID: 0}
  m_PrefabInternal: {fileID: 100100000}
  m_GameObject: {fileID: 1125266473042790}
  m_Material: {fileID: 0}
  m_IsTrigger: 1
  m_Enabled: 1
  serializedVersion: 2
  m_Radius: 0.7
  m_Center: {x: -0.0000000010570858, y: -0.3788391, z: 0.00000010408229}
