%YAML 1.1
%TAG !u! tag:unity3d.com,2011:
--- !u!114 &11400000
MonoBehaviour:
  m_ObjectHideFlags: 0
  m_PrefabParentObject: {fileID: 0}
  m_PrefabInternal: {fileID: 0}
  m_GameObject: {fileID: 0}
  m_Enabled: 1
  m_EditorHideFlags: 0
  m_Script: {fileID: 11500000, guid: 114f4adff47823d4aadb77159ef6731f, type: 3}
  m_Name: AirborneHangPreset
  m_EditorClassIdentifier: 
  m_Data:
    m_ObjectType: Opsive.UltimateCharacterController.Addons.Agility.Hang
    m_ValueHashes: ce1f62d88e2a7096bd0dd4c2
    m_ValuePositions: 000000000400000010000000
    m_Values: 000000000000004000002040cdccccbe01
    m_UnityObjects: []
    m_Version: 2.0.5
