%YAML 1.1
%TAG !u! tag:unity3d.com,2011:
--- !u!114 &11400000
MonoBehaviour:
  m_ObjectHideFlags: 0
  m_PrefabParentObject: {fileID: 0}
  m_PrefabInternal: {fileID: 0}
  m_GameObject: {fileID: 0}
  m_Enabled: 1
  m_EditorHideFlags: 0
  m_Script: {fileID: 11500000, guid: 114f4adff47823d4aadb77159ef6731f, type: 3}
  m_Name: HangUltimateCharacterLocomotionPreset
  m_EditorClassIdentifier: 
  m_Data:
    m_ObjectType: Opsive.UltimateCharacterController.Character.UltimateCharacterLocomotion
    m_ValueHashes: 0ad661f1
    m_ValuePositions: 00000000
    m_Values: 4f70736976652e556c74696d617465436861726163746572436f6e74726f6c6c65722e4669727374506572736f6e436f6e74726f6c6c65722e4368617261637465722e4d6f76656d656e7454797065732e467265654c6f6f6b
    m_UnityObjects: []
    m_Version: 2.1
