%YAML 1.1
%TAG !u! tag:unity3d.com,2011:
--- !u!221 &22100000
AnimatorOverrideController:
  m_ObjectHideFlags: 0
  m_CorrespondingSourceObject: {fileID: 0}
  m_PrefabInstance: {fileID: 0}
  m_PrefabAsset: {fileID: 0}
  m_Name: MovingPlatform_Level5_FSM
  m_Controller: {fileID: 9100000, guid: 72b03b25a80ebcc45b60430dd3be09c4, type: 2}
  m_Clips:
  - m_OriginalClip: {fileID: 7400000, guid: 45292e45c50ea8943a5d0b40392422c5, type: 2}
    m_OverrideClip: {fileID: 7400000, guid: fe84fb28035eb2942a04b821bf850976, type: 2}
  - m_OriginalClip: {fileID: 7400000, guid: f3c1d3e0648ce2a47866c7640412f154, type: 2}
    m_OverrideClip: {fileID: 7400000, guid: fc3199cf1983e1d4c9632598637f7aa9, type: 2}
