%YAML 1.1
%TAG !u! tag:unity3d.com,2011:
--- !u!221 &22100000
AnimatorOverrideController:
  m_ObjectHideFlags: 0
  m_CorrespondingSourceObject: {fileID: 0}
  m_PrefabInstance: {fileID: 0}
  m_PrefabAsset: {fileID: 0}
  m_Name: Rotator_FSM
  m_Controller: {fileID: 9100000, guid: 72b03b25a80ebcc45b60430dd3be09c4, type: 2}
  m_Clips:
  - m_OriginalClip: {fileID: 7400000, guid: 45292e45c50ea8943a5d0b40392422c5, type: 2}
    m_OverrideClip: {fileID: 7400000, guid: b7a093c7ba0b7524eabf8da7ae1d15a6, type: 2}
  - m_OriginalClip: {fileID: 7400000, guid: f3c1d3e0648ce2a47866c7640412f154, type: 2}
    m_OverrideClip: {fileID: 7400000, guid: 3e66c4eb32951f246a65676a2324a542, type: 2}
